
***Details|Source:CSE|Dest:RK|By:BICYCLE R2|Weather:CLEAR


--- time: Thu Sep 07 16:54:48 GMT+05:30 2017
Location: Lat= 22.31818914413452,Lon= 87.3095566034317
x_axisAccelero = -1.9728241
y_axisAccelero = 4.1180267
z_axisAccelero = 9.25119
x_axisMagneto = 41.474915
y_axisMagneto = -10.488892
z_axisMagneto = -31.716919
x_axisGyro = 1.4507751
y_axisGyro = 0.6068573
z_axisGyro = 0.11399841

--- time: Thu Sep 07 16:54:53 GMT+05:30 2017
Location: Lat= 22.31816006,Lon= 87.30946252
x_axisAccelero = 0.049331665
y_axisAccelero = -9.948227
z_axisAccelero = -0.14282227
x_axisMagneto = -23.181152
y_axisMagneto = 18.917847
z_axisMagneto = 16.627502
x_axisGyro = -1.0302887
y_axisGyro = -0.71569824
z_axisGyro = -0.024871826

--- time: Thu Sep 07 16:54:58 GMT+05:30 2017
Location: Lat= 22.31811582,Lon= 87.30935912
x_axisAccelero = -5.2785034
y_axisAccelero = -1.4637146
z_axisAccelero = -3.638382
x_axisGyro = -3.5619965
y_axisGyro = 0.010818481
z_axisGyro = -0.13883972
x_axisMagneto = 41.85028
y_axisMagneto = -19.737244
z_axisMagneto = -25.434875

--- time: Thu Sep 07 16:55:03 GMT+05:30 2017
Location: Lat= 22.31813555,Lon= 87.30935852
x_axisAccelero = -1.8629913
y_axisAccelero = -6.4003906
z_axisAccelero = -7.660263
x_axisMagneto = 34.631348
y_axisMagneto = 36.35559
z_axisMagneto = -3.4973145
x_axisGyro = -1.3252869
y_axisGyro = -0.4656067
z_axisGyro = 0.9027405

--- time: Thu Sep 07 16:55:08 GMT+05:30 2017
Location: Lat= 22.31813962,Lon= 87.30939988
x_axisAccelero = -2.006424
y_axisAccelero = -7.373657
z_axisAccelero = -5.0213165
x_axisGyro = -0.20933533
y_axisGyro = -0.09124756
z_axisGyro = -0.034820557
x_axisMagneto = 45.381165
y_axisMagneto = 20.605469
z_axisMagneto = 1.4404297

--- time: Thu Sep 07 16:55:13 GMT+05:30 2017
Location: Lat= 22.31818778,Lon= 87.30955257
x_axisAccelero = -1.3160095
y_axisAccelero = -7.115616
z_axisAccelero = -4.8498535
x_axisMagneto = 49.81842
y_axisMagneto = 11.91864
z_axisMagneto = 4.3151855
x_axisGyro = -1.1498871
y_axisGyro = -0.58003235
z_axisGyro = 0.62664795

--- time: Thu Sep 07 16:55:18 GMT+05:30 2017
Location: Lat= 22.31819474,Lon= 87.30971443
x_axisAccelero = -2.409195
y_axisAccelero = -7.0052643
z_axisAccelero = -6.0630646
x_axisGyro = -0.19067383
y_axisGyro = -0.42012024
z_axisGyro = -0.3143463
x_axisMagneto = 46.47522
y_axisMagneto = 16.731262
z_axisMagneto = -8.560181

--- time: Thu Sep 07 16:55:23 GMT+05:30 2017
Location: Lat= 22.31823354,Lon= 87.30980435
x_axisAccelero = -2.6815186
y_axisAccelero = -3.9624176
z_axisAccelero = -6.258438
x_axisGyro = 1.953659
y_axisGyro = 0.3044281
z_axisGyro = -1.0223541
x_axisMagneto = 3.881836
y_axisMagneto = 43.94989
z_axisMagneto = -13.090515

--- time: Thu Sep 07 16:55:28 GMT+05:30 2017
Location: Lat= 22.31846023,Lon= 87.3097601
x_axisAccelero = -4.5021973
y_axisAccelero = -7.5212097
z_axisAccelero = -7.9859314
x_axisGyro = -2.0551453
y_axisGyro = -0.4236908
z_axisGyro = 0.8969879
x_axisMagneto = 16.287231
y_axisMagneto = 45.043945
z_axisMagneto = 19.502258

--- time: Thu Sep 07 16:55:33 GMT+05:30 2017
Location: Lat= 22.31864073,Lon= 87.30971871
x_axisAccelero = -1.3879395
y_axisAccelero = -4.7818604
z_axisAccelero = -5.5007324
x_axisGyro = 1.6357269
y_axisGyro = 0.44282532
z_axisGyro = -0.5899811
x_axisMagneto = -1.5869141
y_axisMagneto = 42.14325
z_axisMagneto = -13.421631

--- time: Thu Sep 07 16:55:38 GMT+05:30 2017
Location: Lat= 22.31873747,Lon= 87.30969305
x_axisAccelero = -0.7935486
y_axisAccelero = -6.6553345
z_axisAccelero = -6.443695
x_axisGyro = -0.60687256
y_axisGyro = -0.4075775
z_axisGyro = 0.25906372
x_axisMagneto = 14.819336
y_axisMagneto = 45.60547
z_axisMagneto = 0.0030517578

--- time: Thu Sep 07 16:55:43 GMT+05:30 2017
Location: Lat= 22.31902694,Lon= 87.30967014
x_axisAccelero = -1.7124329
y_axisAccelero = -5.782135
z_axisAccelero = -5.8651733
x_axisMagneto = 11.31897
y_axisMagneto = 45.980835
z_axisMagneto = -5.934143
x_axisGyro = -2.0479279
y_axisGyro = -0.6220856
z_axisGyro = 0.8497467

--- time: Thu Sep 07 16:55:48 GMT+05:30 2017
Location: Lat= 22.31926085,Lon= 87.30962552
x_axisAccelero = -4.1066284
y_axisAccelero = -2.5638275
z_axisAccelero = -6.9124146
x_axisGyro = -0.36566162
y_axisGyro = -0.17984009
z_axisGyro = 0.19132996
x_axisMagneto = 7.4554443
y_axisMagneto = 47.77527
z_axisMagneto = 4.927063

--- time: Thu Sep 07 16:55:53 GMT+05:30 2017
Location: Lat= 22.31932386,Lon= 87.30961398
x_axisAccelero = -3.2286377
y_axisAccelero = -1.1676025
z_axisAccelero = -5.8299103
x_axisGyro = 1.7715454
y_axisGyro = 0.71647644
z_axisGyro = -0.9420624
x_axisMagneto = -18.055725
y_axisMagneto = 37.887573
z_axisMagneto = 5.7281494

--- time: Thu Sep 07 16:55:58 GMT+05:30 2017
Location: Lat= 22.31946239,Lon= 87.30953229
x_axisAccelero = -2.9057312
y_axisAccelero = -2.671646
z_axisAccelero = -7.37619
x_axisGyro = 1.5777435
y_axisGyro = 0.39039612
z_axisGyro = -1.1876221
x_axisMagneto = -17.649841
y_axisMagneto = 33.862305
z_axisMagneto = 13.803101

--- time: Thu Sep 07 16:56:03 GMT+05:30 2017
Location: Lat= 22.31954929,Lon= 87.30933715
x_axisAccelero = -3.6766815
y_axisAccelero = -9.243423
z_axisAccelero = -8.10437
x_axisGyro = 1.1962738
y_axisGyro = 0.6200409
z_axisGyro = -0.34788513
x_axisMagneto = -26.974487
y_axisMagneto = 24.198914
z_axisMagneto = 16.659546

--- time: Thu Sep 07 16:56:08 GMT+05:30 2017
Location: Lat= 22.31955543,Lon= 87.30923412
x_axisAccelero = -1.6581573
y_axisAccelero = -6.75029
z_axisAccelero = -5.8119965
x_axisGyro = -1.926651
y_axisGyro = -0.3963318
z_axisGyro = 0.58758545
x_axisMagneto = -14.012146
y_axisMagneto = 13.499451
z_axisMagneto = 40.940857

--- time: Thu Sep 07 16:56:13 GMT+05:30 2017
Location: Lat= 22.31959159,Lon= 87.30899019
x_axisAccelero = -1.0561218
y_axisAccelero = -7.8500366
z_axisAccelero = -6.1982117
x_axisGyro = -0.46258545
y_axisGyro = -0.355484
z_axisGyro = -0.12983704
x_axisMagneto = -19.993591
y_axisMagneto = 26.58081
z_axisMagneto = 24.639893

--- time: Thu Sep 07 16:56:18 GMT+05:30 2017
Location: Lat= 22.31966458,Lon= 87.30877998
x_axisAccelero = -3.1358795
y_axisAccelero = -4.295517
z_axisAccelero = -7.1323547
x_axisGyro = -1.0493622
y_axisGyro = -0.33312988
z_axisGyro = 0.22987366
x_axisMagneto = -11.656189
y_axisMagneto = 19.906616
z_axisMagneto = 40.20233

--- time: Thu Sep 07 16:56:23 GMT+05:30 2017
Location: Lat= 22.31969295,Lon= 87.30868425
x_axisAccelero = -1.420044
y_axisAccelero = -8.1427765
z_axisAccelero = -6.989792
x_axisGyro = 0.072769165
y_axisGyro = 0.64094543
z_axisGyro = -0.15698242
x_axisMagneto = -2.31781
y_axisMagneto = 42.95044
z_axisMagneto = -9.979248

--- time: Thu Sep 07 16:56:31 GMT+05:30 2017
Location: Lat= 22.31984461,Lon= 87.30862448
x_axisAccelero = -5.7248535
y_axisAccelero = -1.010849
z_axisAccelero = -7.3118134
x_axisGyro = 0.8512573
y_axisGyro = 0.3926239
z_axisGyro = -0.38687134
x_axisMagneto = 25.769043
y_axisMagneto = 36.843872
z_axisMagneto = -12.490845

--- time: Thu Sep 07 16:56:36 GMT+05:30 2017
Location: Lat= 22.32003366,Lon= 87.30873782
x_axisAccelero = -0.8968048
y_axisAccelero = -4.7677155
z_axisAccelero = -4.53302
x_axisGyro = 0.29762268
y_axisGyro = 0.47079468
z_axisGyro = -0.21669006
x_axisMagneto = 21.105957
y_axisMagneto = 41.65497
z_axisMagneto = -12.797546

--- time: Thu Sep 07 16:56:46 GMT+05:30 2017
Location: Lat= 22.32044927,Lon= 87.30898295
x_axisAccelero = -3.3135834
y_axisAccelero = -7.5731964
z_axisAccelero = -7.8032837
x_axisGyro = 0.8455353
y_axisGyro = 0.47369385
z_axisGyro = -0.41775513
x_axisMagneto = 30.674744
y_axisMagneto = 40.312195
z_axisMagneto = 1.7593384

--- time: Thu Sep 07 16:56:51 GMT+05:30 2017
Location: Lat= 22.32064822,Lon= 87.30902606
x_axisAccelero = -2.1484985
y_axisAccelero = -4.7399445
z_axisAccelero = -6.371277
x_axisGyro = 1.6196442
y_axisGyro = 0.5873871
z_axisGyro = -0.9273071
x_axisMagneto = -19.50531
y_axisMagneto = 37.48169
z_axisMagneto = 3.515625

--- time: Thu Sep 07 16:56:56 GMT+05:30 2017
Location: Lat= 22.3207138,Lon= 87.30894324
x_axisAccelero = -4.7098083
y_axisAccelero = -1.0709534
z_axisAccelero = -7.062729
x_axisGyro = 1.6037445
y_axisGyro = 0.5475769
z_axisGyro = -0.9550781
x_axisMagneto = -22.981262
y_axisMagneto = 30.456543
z_axisMagneto = 15.284729

--- time: Thu Sep 07 16:57:01 GMT+05:30 2017
Location: Lat= 22.32076398,Lon= 87.3087823
x_axisAccelero = -4.649872
y_axisAccelero = -5.12471
z_axisAccelero = -9.449417
x_axisGyro = -0.9785614
y_axisGyro = -0.41897583
z_axisGyro = 0.41522217
x_axisMagneto = -12.281799
y_axisMagneto = 29.249573
z_axisMagneto = 33.67157

--- time: Thu Sep 07 16:57:06 GMT+05:30 2017
Location: Lat= 22.32085119,Lon= 87.30854445
x_axisAccelero = -0.030578613
y_axisAccelero = -6.8376923
z_axisAccelero = -5.246521
x_axisGyro = -0.426651
y_axisGyro = -0.48098755
z_axisGyro = -0.01687622
x_axisMagneto = -18.99414
y_axisMagneto = 31.130981
z_axisMagneto = 18.684387

--- time: Thu Sep 07 16:57:12 GMT+05:30 2017
Location: Lat= 22.3209044,Lon= 87.30845543
x_axisAccelero = -1.1848145
y_axisAccelero = -6.559555
z_axisAccelero = -6.1085205

--- time: Thu Sep 07 16:57:24 GMT+05:30 2017
Location: Lat= 22.32105848,Lon= 87.30807186
x_axisGyro = 1.3764648
y_axisGyro = 0.54493713
z_axisGyro = -0.70314026
x_axisAccelero = -4.112549
y_axisAccelero = -0.6010742
z_axisAccelero = -6.6500854
x_axisMagneto = -11.561584
y_axisMagneto = 12.011719
z_axisMagneto = 41.94641

--- time: Thu Sep 07 16:57:32 GMT+05:30 2017
Location: Lat= 22.32109267,Lon= 87.30770903
x_axisAccelero = -4.037323
y_axisAccelero = -3.9530945
z_axisAccelero = -8.022324
x_axisGyro = 1.3968658
y_axisGyro = 0.40879822
z_axisGyro = -0.7737427
x_axisMagneto = -25.474548
y_axisMagneto = 19.030762
z_axisMagneto = 24.528503

--- time: Thu Sep 07 16:57:38 GMT+05:30 2017
Location: Lat= 22.3210854,Lon= 87.30760823
x_axisAccelero = -3.069336
y_axisAccelero = -4.3693542
z_axisAccelero = -6.3660583
x_axisGyro = 0.1374054
y_axisGyro = -0.17294312
z_axisGyro = -0.098526
x_axisMagneto = 12.893677
y_axisMagneto = -37.950134
z_axisMagneto = -25.334167

--- time: Thu Sep 07 16:57:47 GMT+05:30 2017
Location: Lat= 22.3210846,Lon= 87.307315
x_axisAccelero = -0.006790161
y_axisAccelero = 3.1094818
z_axisAccelero = 9.898987
x_axisGyro = 0.20401001
y_axisGyro = -0.040618896
z_axisGyro = 0.13545227
x_axisMagneto = 30.110168
y_axisMagneto = 8.119202
z_axisMagneto = -39.227295