
***Details|Source:CSE|Dest:RK|By:BYCYCLE|Weather:CLEAR


--- time: Mon Sep 04 13:08:39 GMT+05:30 2017
Location: Lat= 22.31807015,Lon= 87.30924828
x_axisAccelero = 0.0
y_axisAccelero = 2.4314117
z_axisAccelero = 8.894089
x_axisGyro = -0.060409546
y_axisGyro = 0.17190552
z_axisGyro = 0.4769745
x_axisMagneto = 2.1255493
y_axisMagneto = -41.682434
z_axisMagneto = -19.114685

--- time: Mon Sep 04 13:08:44 GMT+05:30 2017
Location: Lat= 22.31807952,Lon= 87.30925011
x_axisAccelero = -3.378479
y_axisAccelero = -8.7308655
z_axisAccelero = 1.3817291
x_axisGyro = -0.029632568
y_axisGyro = 0.5476074
z_axisGyro = -0.2752838
x_axisMagneto = 45.643616
y_axisMagneto = 2.89917
z_axisMagneto = -8.2901

--- time: Mon Sep 04 13:08:49 GMT+05:30 2017
Location: Lat= 22.31808096,Lon= 87.30925308
x_axisAccelero = 0.17198181
y_axisAccelero = -10.120499
z_axisAccelero = 0.38041687
x_axisGyro = -0.59169006
y_axisGyro = 0.5875244
z_axisGyro = -0.2416687
x_axisMagneto = -27.58789
y_axisMagneto = 3.718567
z_axisMagneto = 42.547607

--- time: Mon Sep 04 13:08:54 GMT+05:30 2017
Location: Lat= 22.31807828,Lon= 87.30926242
x_axisAccelero = 2.852127
y_axisAccelero = -9.074554
z_axisAccelero = 6.903763
x_axisGyro = -0.15016174
y_axisGyro = 0.42773438
z_axisGyro = -0.51651
x_axisMagneto = -46.525574
y_axisMagneto = 25.462341
z_axisMagneto = 4.347229

--- time: Mon Sep 04 13:08:59 GMT+05:30 2017
Location: Lat= 22.31812866,Lon= 87.30932735
x_axisAccelero = 2.9296112
y_axisAccelero = -1.760086
z_axisAccelero = 9.469925
x_axisGyro = -1.5470734
y_axisGyro = -0.0048980713
z_axisGyro = -0.11456299
x_axisMagneto = -51.05591
y_axisMagneto = 8.761597
z_axisMagneto = -7.5408936

--- time: Mon Sep 04 13:09:04 GMT+05:30 2017
Location: Lat= 22.31815057,Lon= 87.30938939
x_axisAccelero = 3.9378967
y_axisAccelero = -7.431534
z_axisAccelero = 6.7920074
x_axisGyro = -0.15280151
y_axisGyro = 0.050048828
z_axisGyro = -0.10726929
x_axisMagneto = -50.13733
y_axisMagneto = 3.1555176
z_axisMagneto = -14.546204

--- time: Mon Sep 04 13:09:09 GMT+05:30 2017
Location: Lat= 22.31815982,Lon= 87.30954359
x_axisAccelero = 3.5538635
y_axisAccelero = -7.116089
z_axisAccelero = 6.2418213
x_axisGyro = -0.022415161
y_axisGyro = 0.0368042
z_axisGyro = -0.013122559
x_axisMagneto = -52.442932
y_axisMagneto = 7.293701
z_axisMagneto = -7.7026367

--- time: Mon Sep 04 13:09:14 GMT+05:30 2017
Location: Lat= 22.31821241,Lon= 87.30971811
x_axisAccelero = 2.670456
y_axisAccelero = -8.495865
z_axisAccelero = 11.843323
x_axisGyro = -0.5921173
y_axisGyro = -0.108947754
z_axisGyro = 0.014709473
x_axisMagneto = -22.288513
y_axisMagneto = 41.62445
z_axisMagneto = 16.716003

--- time: Mon Sep 04 13:09:19 GMT+05:30 2017
Location: Lat= 22.31825859,Lon= 87.30973839
x_axisAccelero = 2.7134094
y_axisAccelero = -6.3237305
z_axisAccelero = 6.1209564
x_axisGyro = 1.4134369
y_axisGyro = -0.041107178
z_axisGyro = -0.18759155
x_axisMagneto = -24.475098
y_axisMagneto = 44.81201
z_axisMagneto = -10.27832

--- time: Mon Sep 04 13:09:24 GMT+05:30 2017
Location: Lat= 22.31840727,Lon= 87.30974992
x_axisAccelero = 2.8344421
y_axisAccelero = -5.5032043
z_axisAccelero = 10.061081
x_axisGyro = -1.2441101
y_axisGyro = -0.042907715
z_axisGyro = -0.14160156
x_axisMagneto = -20.3125
y_axisMagneto = 42.256165
z_axisMagneto = 16.841125

--- time: Mon Sep 04 13:09:29 GMT+05:30 2017
Location: Lat= 22.31859408,Lon= 87.3097587
x_axisAccelero = 4.235092
y_axisAccelero = -5.372711
z_axisAccelero = 6.4057617
x_axisGyro = 1.2460327
y_axisGyro = 0.014144897
z_axisGyro = -0.2723236
x_axisMagneto = -16.099548
y_axisMagneto = 44.2688
z_axisMagneto = -13.40332

--- time: Mon Sep 04 13:09:34 GMT+05:30 2017
Location: Lat= 22.31877558,Lon= 87.30972233
x_axisAccelero = 2.2412415
y_axisAccelero = -2.1461334
z_axisAccelero = 6.8039246
x_axisGyro = -1.6159973
y_axisGyro = 0.09222412
z_axisGyro = -0.13131714
x_axisMagneto = -22.0932
y_axisMagneto = 41.05072
z_axisMagneto = 10.847473

--- time: Mon Sep 04 13:09:39 GMT+05:30 2017
Location: Lat= 22.3189563,Lon= 87.30970049
x_axisAccelero = 3.1879883
y_axisAccelero = -4.3647003
z_axisAccelero = 7.2071686
x_axisGyro = 1.6460876
y_axisGyro = -0.20407104
z_axisGyro = -0.02923584
x_axisMagneto = -30.406189
y_axisMagneto = 42.14325
z_axisMagneto = -13.996887

--- time: Mon Sep 04 13:09:44 GMT+05:30 2017
Location: Lat= 22.31912172,Lon= 87.30970945
x_axisAccelero = 3.0925446
y_axisAccelero = -0.80851746
z_axisAccelero = 6.696335
x_axisGyro = -1.8699493
y_axisGyro = 0.2967682
z_axisGyro = 0.09303284
x_axisMagneto = -18.624878
y_axisMagneto = 45.0119
z_axisMagneto = 10.046387

--- time: Mon Sep 04 13:09:49 GMT+05:30 2017
Location: Lat= 22.31920558,Lon= 87.30969172
x_axisAccelero = 3.8702698
y_axisAccelero = -8.919846
z_axisAccelero = 7.6987457
x_axisGyro = -1.0419159
y_axisGyro = 0.06982422
z_axisGyro = -0.03666687
x_axisMagneto = -10.91156
y_axisMagneto = 44.874573
z_axisMagneto = 13.702393

--- time: Mon Sep 04 13:09:54 GMT+05:30 2017
Location: Lat= 22.31939952,Lon= 87.30960131
x_axisAccelero = 3.0505676
y_axisAccelero = -6.395859
z_axisAccelero = 7.0443726
x_axisGyro = -1.1445312
y_axisGyro = 0.0670166
z_axisGyro = -0.051605225
x_axisMagneto = 10.469055
y_axisMagneto = 41.799927
z_axisMagneto = 3.2531738

--- time: Mon Sep 04 13:09:59 GMT+05:30 2017
Location: Lat= 22.31953373,Lon= 87.30936817
x_axisAccelero = 3.1744537
y_axisAccelero = -2.1305847
z_axisAccelero = 7.182953
x_axisGyro = -1.7717896
y_axisGyro = 0.41020203
z_axisGyro = 0.024002075
x_axisMagneto = 23.187256
y_axisMagneto = 25.89264
z_axisMagneto = -18.559265

--- time: Mon Sep 04 13:10:04 GMT+05:30 2017
Location: Lat= 22.31953583,Lon= 87.30928333
x_axisAccelero = 1.0218353
y_axisAccelero = -5.590042
z_axisAccelero = 5.156784
x_axisGyro = 0.60375977
y_axisGyro = -0.089538574
z_axisGyro = -0.15197754
x_axisMagneto = 20.594788
y_axisMagneto = 33.644104
z_axisMagneto = -10.684204

--- time: Mon Sep 04 13:10:09 GMT+05:30 2017
Location: Lat= 22.31953855,Lon= 87.30910478
x_axisAccelero = 1.7909393
y_axisAccelero = -6.3950806
z_axisAccelero = 7.3552856
x_axisMagneto = 18.031311
y_axisMagneto = 33.83026
z_axisMagneto = -6.465149
x_axisGyro = 0.6134949
y_axisGyro = -0.22543335
z_axisGyro = 0.08157349

--- time: Mon Sep 04 13:10:14 GMT+05:30 2017
Location: Lat= 22.31959071,Lon= 87.30898236
x_axisAccelero = 2.735199
y_axisAccelero = -6.8286285
z_axisAccelero = 7.5460205
x_axisMagneto = 18.406677
y_axisMagneto = 33.83026
z_axisMagneto = -4.0908813
x_axisGyro = 0.36061096
y_axisGyro = -0.022369385
z_axisGyro = -0.37376404

--- time: Mon Sep 04 13:10:19 GMT+05:30 2017
Location: Lat= 22.31960046,Lon= 87.30891776
x_axisAccelero = 3.50354
y_axisAccelero = -7.822174
z_axisAccelero = 5.8867035
x_axisGyro = 0.6416168
y_axisGyro = -0.27467346
z_axisGyro = 0.15164185
x_axisMagneto = 17.843628
y_axisMagneto = 33.081055
z_axisMagneto = -10.966492

--- time: Mon Sep 04 13:10:24 GMT+05:30 2017
Location: Lat= 22.31964607,Lon= 87.30873635
x_axisAccelero = 4.006607
y_axisAccelero = -0.17337036
z_axisAccelero = 7.688431
x_axisGyro = -1.4785461
y_axisGyro = 0.497406
z_axisGyro = 0.048934937
x_axisMagneto = 18.59436
y_axisMagneto = 35.89325
z_axisMagneto = -14.059448

--- time: Mon Sep 04 13:10:29 GMT+05:30 2017
Location: Lat= 22.31972739,Lon= 87.30857308
x_axisAccelero = 4.425522
y_axisAccelero = -10.018951
z_axisAccelero = 7.8575134
x_axisGyro = 0.66993713
y_axisGyro = -0.068862915
z_axisGyro = -0.27868652
x_axisMagneto = 12.687683
y_axisMagneto = 40.51819
z_axisMagneto = -9.872437

--- time: Mon Sep 04 13:10:34 GMT+05:30 2017
Location: Lat= 22.31977805,Lon= 87.30848237
x_axisAccelero = 4.4983063
y_axisAccelero = -6.171112
z_axisAccelero = 9.438446
x_axisGyro = 1.2388306
y_axisGyro = -0.31497192
z_axisGyro = -0.16596985
x_axisMagneto = 12.718201
y_axisMagneto = 22.924805
z_axisMagneto = -33.029175

--- time: Mon Sep 04 13:10:39 GMT+05:30 2017
Location: Lat= 22.31981929,Lon= 87.30832925
x_axisAccelero = 2.682663
y_axisAccelero = -5.978485
z_axisAccelero = 7.0082397
x_axisGyro = -0.7935028
y_axisGyro = 0.031326294
z_axisGyro = 0.348114
x_axisMagneto = 21.781921
y_axisMagneto = 30.517578
z_axisMagneto = -9.902954

--- time: Mon Sep 04 13:10:44 GMT+05:30 2017
Location: Lat= 22.31981085,Lon= 87.3082119
x_axisAccelero = 3.4830322
y_axisAccelero = -1.6062012
z_axisAccelero = 7.035095
x_axisGyro = 0.43318176
y_axisGyro = 0.043655396
z_axisGyro = -0.047424316
x_axisMagneto = 19.187927
y_axisMagneto = 14.7994995
z_axisMagneto = -33.683777

--- time: Mon Sep 04 13:10:49 GMT+05:30 2017
Location: Lat= 22.31980817,Lon= 87.30812741
x_axisAccelero = 3.8117828
y_axisAccelero = 0.33303833
z_axisAccelero = 8.2595215
x_axisMagneto = 17.34314
y_axisMagneto = 9.831238
z_axisMagneto = -35.5896
x_axisGyro = -0.3890686
y_axisGyro = 0.13742065
z_axisGyro = -0.020553589

--- time: Mon Sep 04 13:10:54 GMT+05:30 2017
Location: Lat= 22.31980303,Lon= 87.30795742
x_axisAccelero = 2.8440247
y_axisAccelero = -6.6107483
z_axisAccelero = 5.5538177
x_axisGyro = -1.1446686
y_axisGyro = 0.059265137
z_axisGyro = 0.12043762
x_axisMagneto = 22.531128
y_axisMagneto = 24.580383
z_axisMagneto = -17.279053

--- time: Mon Sep 04 13:10:59 GMT+05:30 2017
Location: Lat= 22.31980309,Lon= 87.3077663
x_axisAccelero = 5.3367767
y_axisAccelero = -1.9949036
z_axisAccelero = 8.36676
x_axisGyro = 0.8366394
y_axisGyro = -0.15826416
z_axisGyro = -0.2538452
x_axisMagneto = 16.40625
y_axisMagneto = 10.736084
z_axisMagneto = -35.21576

--- time: Mon Sep 04 13:11:04 GMT+05:30 2017
Location: Lat= 22.31979145,Lon= 87.30765496
x_axisAccelero = 3.3950348
y_axisAccelero = -7.266281
z_axisAccelero = 7.2126007
x_axisMagneto = 18.844604
y_axisMagneto = 20.518494
z_axisMagneto = -25.465393
x_axisGyro = 1.4438171
y_axisGyro = -0.17965698
z_axisGyro = -0.22215271

--- time: Mon Sep 04 13:11:09 GMT+05:30 2017
Location: Lat= 22.31976087,Lon= 87.30745175
x_axisAccelero = 2.9879608
y_axisAccelero = -1.6472168
z_axisAccelero = 5.3821716
x_axisMagneto = 22.343445
y_axisMagneto = 28.111267
z_axisMagneto = -19.184875
x_axisGyro = -1.2868805
y_axisGyro = 0.42362976
z_axisGyro = -0.15611267

--- time: Mon Sep 04 13:11:14 GMT+05:30 2017
Location: Lat= 22.31977506,Lon= 87.30731727
x_axisAccelero = 3.3523254
y_axisAccelero = -8.722839
z_axisAccelero = 8.4231415
x_axisMagneto = -7.9681396
y_axisMagneto = 41.98761
z_axisMagneto = 14.002991
x_axisGyro = 1.7690887
y_axisGyro = -0.09379578
z_axisGyro = -0.6644287

--- time: Mon Sep 04 13:11:19 GMT+05:30 2017
Location: Lat= 22.31984958,Lon= 87.30727425
x_axisAccelero = 4.3888245
y_axisAccelero = 1.2299805
z_axisAccelero = 6.323517
x_axisGyro = -0.98934937
y_axisGyro = 0.34736633
z_axisGyro = 0.33554077
x_axisMagneto = -15.843201
y_axisMagneto = 47.87445
z_axisMagneto = 4.9468994

--- time: Mon Sep 04 13:11:24 GMT+05:30 2017
Location: Lat= 22.32008478,Lon= 87.30726456
x_axisAccelero = 6.665451
y_axisAccelero = -1.359909
z_axisAccelero = 9.787491
x_axisMagneto = -19.093323
y_axisMagneto = 47.54944
z_axisMagneto = -7.434082
x_axisGyro = -1.5169525
y_axisGyro = 0.37646484
z_axisGyro = 0.15771484

--- time: Mon Sep 04 13:11:29 GMT+05:30 2017
Location: Lat= 22.32027237,Lon= 87.30728115
x_axisAccelero = 2.5614014
y_axisAccelero = -8.211502
z_axisAccelero = 7.1961365
x_axisMagneto = -13.531494
y_axisMagneto = 47.706604
z_axisMagneto = 8.097839
x_axisGyro = 1.0996857
y_axisGyro = -0.13746643
z_axisGyro = -0.20864868

--- time: Mon Sep 04 13:11:34 GMT+05:30 2017
Location: Lat= 22.32038641,Lon= 87.30728262
x_axisAccelero = 2.4315796
y_axisAccelero = -0.8608093
z_axisAccelero = 5.485443
x_axisMagneto = -13.905334
y_axisMagneto = 47.54944
z_axisMagneto = 9.909058
x_axisGyro = -0.08488464
y_axisGyro = 0.17700195
z_axisGyro = -0.009979248

--- time: Mon Sep 04 13:11:39 GMT+05:30 2017
Location: Lat= 22.32056803,Lon= 87.30726076
x_axisAccelero = 2.4977875
y_axisAccelero = -5.3565063
z_axisAccelero = 4.427719
x_axisMagneto = -10.9375
y_axisMagneto = 46.643066
z_axisMagneto = 13.346863
x_axisGyro = 0.013092041
y_axisGyro = 0.034622192
z_axisGyro = -0.073394775

--- time: Mon Sep 04 13:11:44 GMT+05:30 2017
Location: Lat= 22.32071676,Lon= 87.30722644
x_axisAccelero = 1.9410248
y_axisAccelero = -6.748596
z_axisAccelero = 6.7530365
x_axisMagneto = -6.843567
y_axisMagneto = 47.51892
z_axisMagneto = 13.972473
x_axisGyro = -0.037322998
y_axisGyro = -0.076538086
z_axisGyro = -0.022659302

--- time: Mon Sep 04 13:11:49 GMT+05:30 2017
Location: Lat= 22.32080023,Lon= 87.30720879
x_axisAccelero = 0.30807495
y_axisAccelero = -3.4410553
z_axisAccelero = 5.867035
x_axisMagneto = 26.094055
y_axisMagneto = 37.174988
z_axisMagneto = -21.809387
x_axisGyro = -0.084869385
y_axisGyro = 0.43060303
z_axisGyro = 0.05055237

--- time: Mon Sep 04 13:11:54 GMT+05:30 2017
Location: Lat= 22.32094679,Lon= 87.30718475
x_axisAccelero = 1.0319061
y_axisAccelero = 1.6160889
z_axisAccelero = 8.987839
x_axisMagneto = 16.468811
y_axisMagneto = 31.080627
z_axisMagneto = -39.27765
x_axisGyro = 0.13224792
y_axisGyro = -0.3085022
z_axisGyro = -0.37879944

--- time: Mon Sep 04 13:11:59 GMT+05:30 2017
Location: Lat= 22.32095754,Lon= 87.30716578
x_axisAccelero = 0.3256073
y_axisAccelero = 2.6623535
z_axisAccelero = 8.350983
x_axisMagneto = 7.624817
y_axisMagneto = 33.45642
z_axisMagneto = -41.308594
x_axisGyro = 0.2428894
y_axisGyro = 0.050949097
z_axisGyro = 0.16795349