
***Details|Source:RK|Dest:CSE|By:BYCYCLE|Weather:CLEAR


--- time: Mon Sep 04 11:53:53 GMT+05:30 2017
Location: Lat= 22.32108175,Lon= 87.30729386
x_axisAccelero = -2.9427185
y_axisAccelero = 4.0017853
z_axisAccelero = 8.11525
x_axisGyro = -0.45783997
y_axisGyro = -0.61257935
z_axisGyro = -0.4337616
x_axisMagneto = 14.649963
y_axisMagneto = -39.60724
z_axisMagneto = -19.621277

--- time: Mon Sep 04 11:53:58 GMT+05:30 2017
Location: Lat= 22.32107831,Lon= 87.30722896
x_axisAccelero = 4.151581
y_axisAccelero = -3.8670654
z_axisAccelero = 7.522629
x_axisGyro = -0.07601929
y_axisGyro = -0.28407288
z_axisGyro = 0.24246216
x_axisMagneto = -12.574768
y_axisMagneto = -11.419678
z_axisMagneto = -46.658325

--- time: Mon Sep 04 11:54:03 GMT+05:30 2017
Location: Lat= 22.32108986,Lon= 87.30723057
x_axisAccelero = 1.7750244
y_axisAccelero = -1.4461823
z_axisAccelero = 8.915726
x_axisGyro = -1.1201935
y_axisGyro = 0.65449524
z_axisGyro = -0.11419678
x_axisMagneto = -1.4312744
y_axisMagneto = -16.957092
z_axisMagneto = -42.840576

--- time: Mon Sep 04 11:54:08 GMT+05:30 2017
Location: Lat= 22.3209902,Lon= 87.30725381
x_axisAccelero = 0.17370605
y_axisAccelero = -6.7654266
z_axisAccelero = 5.6215515
x_axisGyro = -0.20783997
y_axisGyro = 0.038009644
z_axisGyro = 0.0050354004
x_axisMagneto = -4.850769
y_axisMagneto = -9.58252
z_axisMagneto = -43.052673

--- time: Mon Sep 04 11:54:13 GMT+05:30 2017
Location: Lat= 22.32083378,Lon= 87.30725636
x_axisAccelero = 2.049591
y_axisAccelero = -7.4966736
z_axisAccelero = 8.879242
x_axisGyro = -1.151062
y_axisGyro = 0.15507507
z_axisGyro = -0.0617218
x_axisMagneto = -1.2374878
y_axisMagneto = -7.0129395
z_axisMagneto = -41.127014

--- time: Mon Sep 04 11:54:18 GMT+05:30 2017
Location: Lat= 22.32075646,Lon= 87.30726287
x_axisAccelero = 2.1409302
y_axisAccelero = -6.5201263
z_axisAccelero = 6.0294037
x_axisGyro = -0.9106293
y_axisGyro = -0.048065186
z_axisGyro = 0.1437378
x_axisMagneto = -5.644226
y_axisMagneto = -6.9381714
z_axisMagneto = -42.503357

--- time: Mon Sep 04 11:54:23 GMT+05:30 2017
Location: Lat= 22.32055018,Lon= 87.30726866
x_axisAccelero = 5.0618744
y_axisAccelero = -6.99852
z_axisAccelero = 5.366638
x_axisGyro = -0.40856934
y_axisGyro = 0.10218811
z_axisGyro = -0.037322998
x_axisMagneto = -7.131958
y_axisMagneto = -9.181213
z_axisMagneto = -42.315674

--- time: Mon Sep 04 11:54:28 GMT+05:30 2017
Location: Lat= 22.32034893,Lon= 87.30723747
x_axisAccelero = 1.4628143
y_axisAccelero = -6.5238495
z_axisAccelero = 5.5343475
x_axisGyro = 0.648468
y_axisGyro = -0.27546692
z_axisGyro = -0.16731262
x_axisMagneto = -10.012817
y_axisMagneto = -19.306946
z_axisMagneto = -38.308716

--- time: Mon Sep 04 11:54:33 GMT+05:30 2017
Location: Lat= 22.32027003,Lon= 87.30724591
x_axisAccelero = 3.111435
y_axisAccelero = -13.058304
z_axisAccelero = 11.435776
x_axisGyro = 0.33677673
y_axisGyro = -0.05307007
z_axisGyro = -0.11123657
x_axisMagneto = -12.043762
y_axisMagneto = -14.8880005
z_axisMagneto = -38.352966

--- time: Mon Sep 04 11:54:38 GMT+05:30 2017
Location: Lat= 22.32010999,Lon= 87.30729594
x_axisAccelero = 4.3858185
y_axisAccelero = 0.963089
z_axisAccelero = 6.679718
x_axisGyro = -0.98931885
y_axisGyro = 0.124801636
z_axisGyro = 0.23617554
x_axisMagneto = -35.343933
y_axisMagneto = -17.16919
z_axisMagneto = -30.371094

--- time: Mon Sep 04 11:54:43 GMT+05:30 2017
Location: Lat= 22.31982862,Lon= 87.30742038
x_axisAccelero = 2.6320648
y_axisAccelero = -6.5161743
z_axisAccelero = 7.5621643
x_axisGyro = 1.7924042
y_axisGyro = -0.39801025
z_axisGyro = -0.6257019
x_axisMagneto = -51.467896
y_axisMagneto = 5.267334
z_axisMagneto = -5.090332

--- time: Mon Sep 04 11:54:48 GMT+05:30 2017
Location: Lat= 22.31983949,Lon= 87.30752344
x_axisAccelero = 4.335388
y_axisAccelero = -3.7449799
z_axisAccelero = 7.3852234
x_axisGyro = 1.3289337
y_axisGyro = -0.19656372
z_axisGyro = -0.16543579
x_axisMagneto = -52.40631
y_axisMagneto = 4.7805786
z_axisMagneto = -7.472229

--- time: Mon Sep 04 11:54:53 GMT+05:30 2017
Location: Lat= 22.31984922,Lon= 87.30766575
x_axisAccelero = 5.9283447
y_axisAccelero = 1.4972076
z_axisAccelero = 3.7670593
x_axisGyro = -1.6675262
y_axisGyro = 0.443573
z_axisGyro = 0.243927
x_axisMagneto = -51.393127
y_axisMagneto = 11.024475
z_axisMagneto = -7.0022583

--- time: Mon Sep 04 11:54:58 GMT+05:30 2017
Location: Lat= 22.31984389,Lon= 87.30786579
x_axisAccelero = 3.214203
y_axisAccelero = -5.293274
z_axisAccelero = 5.935791
x_axisGyro = -1.5483551
y_axisGyro = 0.32214355
z_axisGyro = 0.5107727
x_axisMagneto = -50.38147
y_axisMagneto = 12.962341
z_axisMagneto = -5.352783

--- time: Mon Sep 04 11:55:03 GMT+05:30 2017
Location: Lat= 22.31985348,Lon= 87.30796947
x_axisAccelero = 2.1692505
y_axisAccelero = -2.6223755
z_axisAccelero = 4.0773163
x_axisGyro = -0.5113983
y_axisGyro = 0.365036
z_axisGyro = 0.20243835
x_axisMagneto = -50.868225
y_axisMagneto = 11.167908
z_axisMagneto = -6.3842773

--- time: Mon Sep 04 11:55:08 GMT+05:30 2017
Location: Lat= 22.31986219,Lon= 87.30817108
x_axisAccelero = 1.0763702
y_axisAccelero = -10.888123
z_axisAccelero = 6.463043
x_axisGyro = 0.6555023
y_axisGyro = -0.45993042
z_axisGyro = -0.26617432
x_axisMagneto = -49.856567
y_axisMagneto = 0.7675171
z_axisMagneto = -9.571838

--- time: Mon Sep 04 11:55:13 GMT+05:30 2017
Location: Lat= 22.31985532,Lon= 87.30842792
x_axisAccelero = 3.3744507
y_axisAccelero = -5.986023
z_axisAccelero = 5.8706207
x_axisGyro = 1.5979309
y_axisGyro = -0.15867615
z_axisGyro = -0.32844543
x_axisMagneto = -49.931335
y_axisMagneto = 3.9245605
z_axisMagneto = -9.089661

--- time: Mon Sep 04 11:55:18 GMT+05:30 2017
Location: Lat= 22.31985951,Lon= 87.30859234
x_axisAccelero = 3.8099976
y_axisAccelero = -5.888611
z_axisAccelero = 10.384628
x_axisGyro = 1.6412964
y_axisGyro = -0.13989258
z_axisGyro = -1.0655975
x_axisMagneto = -2.0935059
y_axisMagneto = -30.545044
z_axisMagneto = -30.809021

--- time: Mon Sep 04 11:55:23 GMT+05:30 2017
Location: Lat= 22.31969424,Lon= 87.30869752
x_axisAccelero = 5.2560883
y_axisAccelero = -0.4770813
z_axisAccelero = 6.246231
x_axisMagneto = 3.4683228
y_axisMagneto = -19.232178
z_axisMagneto = -36.465454
x_axisGyro = -1.0035248
y_axisGyro = 0.39353943
z_axisGyro = 0.21348572

--- time: Mon Sep 04 11:55:28 GMT+05:30 2017
Location: Lat= 22.31952612,Lon= 87.30859134
x_axisAccelero = 4.2294006
y_axisAccelero = -3.0695648
z_axisAccelero = 5.8674164
x_axisGyro = 0.9144592
y_axisGyro = -0.26094055
z_axisGyro = -0.105773926
x_axisMagneto = 0.15716553
y_axisMagneto = -22.013855
z_axisMagneto = -35.93445

--- time: Mon Sep 04 11:55:33 GMT+05:30 2017
Location: Lat= 22.31943774,Lon= 87.30856
x_axisAccelero = 4.168213
y_axisAccelero = -6.632782
z_axisAccelero = 6.895523
x_axisGyro = 1.2577515
y_axisGyro = -0.17301941
z_axisGyro = -0.41505432
x_axisMagneto = 2.0004272
y_axisMagneto = -20.732117
z_axisMagneto = -34.246826

--- time: Mon Sep 04 11:55:38 GMT+05:30 2017
Location: Lat= 22.31927677,Lon= 87.30845717
x_axisAccelero = 5.521652
y_axisAccelero = -2.1691895
z_axisAccelero = 8.58931
x_axisGyro = 0.7496948
y_axisGyro = -0.1481018
z_axisGyro = -0.10606384
x_axisMagneto = -2.281189
y_axisMagneto = -25.169373
z_axisMagneto = -35.49652

--- time: Mon Sep 04 11:55:43 GMT+05:30 2017
Location: Lat= 22.31909328,Lon= 87.3083399
x_axisAccelero = 4.5710297
y_axisAccelero = -2.755371
z_axisAccelero = 6.501404
x_axisGyro = -1.9884033
y_axisGyro = 0.5180664
z_axisGyro = 0.61309814
x_axisMagneto = 2.0004272
y_axisMagneto = -4.0130615
z_axisMagneto = -39.027405

--- time: Mon Sep 04 11:55:48 GMT+05:30 2017
Location: Lat= 22.3189914,Lon= 87.30830529
x_axisAccelero = 2.105713
y_axisAccelero = -6.9890137
z_axisAccelero = 5.5593567
x_axisGyro = 0.8248749
y_axisGyro = -0.5780029
z_axisGyro = -0.2658081
x_axisMagneto = -1.1505127
y_axisMagneto = -12.832642
z_axisMagneto = -37.678528

--- time: Mon Sep 04 11:55:51 GMT+05:30 2017
Location: Lat= 22.31887577,Lon= 87.30825135
x_axisAccelero = 4.351166
y_axisAccelero = -5.281433
z_axisAccelero = 6.6497498
x_axisGyro = 1.8756256
y_axisGyro = -0.18743896
z_axisGyro = -0.68237305
x_axisMagneto = 1.4678955
y_axisMagneto = -23.582458
z_axisMagneto = -34.091187

--- time: Mon Sep 04 11:55:56 GMT+05:30 2017
Location: Lat= 22.3187822,Lon= 87.30819108
x_axisAccelero = 3.6422882
y_axisAccelero = -1.8707275
z_axisAccelero = 6.133896
x_axisGyro = -0.28079224
y_axisGyro = 0.20988464
z_axisGyro = 0.13970947
x_axisMagneto = 1.5808105
y_axisMagneto = -11.920166
z_axisMagneto = -37.747192

--- time: Mon Sep 04 11:56:01 GMT+05:30 2017
Location: Lat= 22.31867928,Lon= 87.30818065
x_axisAccelero = 4.5961456
y_axisAccelero = -2.43544
z_axisAccelero = 6.926895
x_axisGyro = -1.9972839
y_axisGyro = 0.52789307
z_axisGyro = 0.6152191
x_axisMagneto = 3.3432007
y_axisMagneto = -0.29449463
z_axisMagneto = -38.053894

--- time: Mon Sep 04 11:56:06 GMT+05:30 2017
Location: Lat= 22.31847253,Lon= 87.30810701
x_axisAccelero = 2.8698273
y_axisAccelero = -6.996811
z_axisAccelero = 6.86055
x_axisGyro = -1.0593109
y_axisGyro = 0.42945862
z_axisGyro = 0.078948975
x_axisMagneto = 4.243469
y_axisMagneto = -1.6571045
z_axisMagneto = -38.86566

--- time: Mon Sep 04 11:56:11 GMT+05:30 2017
Location: Lat= 22.31827865,Lon= 87.30801635
x_axisAccelero = 3.5731812
y_axisAccelero = -8.374008
z_axisAccelero = 8.715881
x_axisGyro = 0.31221008
y_axisGyro = -0.33737183
z_axisGyro = -0.015914917
x_axisMagneto = -0.36315918
y_axisMagneto = -7.9071045
z_axisMagneto = -38.996887

--- time: Mon Sep 04 11:56:16 GMT+05:30 2017
Location: Lat= 22.31815813,Lon= 87.30796463
x_axisAccelero = 1.737915
y_axisAccelero = -6.9961853
z_axisAccelero = 4.4641876
x_axisGyro = 0.3733673
y_axisGyro = -0.48583984
z_axisGyro = -0.17591858
x_axisMagneto = 1.1306763
y_axisMagneto = -7.2387695
z_axisMagneto = -37.353516

--- time: Mon Sep 04 11:56:21 GMT+05:30 2017
Location: Lat= 22.31797546,Lon= 87.30787445
x_axisAccelero = 3.0164795
y_axisAccelero = -5.1455536
z_axisAccelero = 4.8993683
x_axisGyro = -0.3062439
y_axisGyro = 0.17082214
z_axisGyro = 0.049484253
x_axisMagneto = 2.5558472
y_axisMagneto = -1.4816284
z_axisMagneto = -39.70337

--- time: Mon Sep 04 11:56:26 GMT+05:30 2017
Location: Lat= 22.31778928,Lon= 87.30778422
x_axisAccelero = 5.036911
y_axisAccelero = -8.251999
z_axisAccelero = 7.8311005
x_axisGyro = -1.6346588
y_axisGyro = 0.22050476
z_axisGyro = 0.57733154
x_axisMagneto = 2.1942139
y_axisMagneto = -0.6820679
z_axisMagneto = -38.8031

--- time: Mon Sep 04 11:56:31 GMT+05:30 2017
Location: Lat= 22.31769383,Lon= 87.30773721
x_axisAccelero = 4.851013
y_axisAccelero = -1.8498077
z_axisAccelero = 7.905472
x_axisGyro = -0.31170654
y_axisGyro = -0.20721436
z_axisGyro = 0.17100525
x_axisMagneto = 1.1001587
y_axisMagneto = -15.081787
z_axisMagneto = -37.753296

--- time: Mon Sep 04 11:56:36 GMT+05:30 2017
Location: Lat= 22.3175721,Lon= 87.30768152
x_axisAccelero = 2.252304
y_axisAccelero = -7.099716
z_axisAccelero = 7.888153
x_axisGyro = -0.5460205
y_axisGyro = 0.1512146
z_axisGyro = 0.40711975
x_axisMagneto = -33.51288
y_axisMagneto = -6.8756104
z_axisMagneto = -29.534912

--- time: Mon Sep 04 11:56:43 GMT+05:30 2017
Location: Lat= 22.31725403,Lon= 87.30765438
x_axisAccelero = 3.934723
y_axisAccelero = -2.31839
z_axisAccelero = 5.455612
x_axisGyro = -1.7995911
y_axisGyro = 0.5649872
z_axisGyro = 0.5318451
x_axisMagneto = -42.756653
y_axisMagneto = 16.842651
z_axisMagneto = -0.390625

--- time: Mon Sep 04 11:56:48 GMT+05:30 2017
Location: Lat= 22.31724301,Lon= 87.30779485
x_axisAccelero = 4.4649963
y_axisAccelero = -1.238739
z_axisAccelero = 5.8752747
x_axisGyro = -1.7100067
y_axisGyro = 0.61535645
z_axisGyro = 0.7436371
x_axisMagneto = -46.606445
y_axisMagneto = 20.393372
z_axisMagneto = -1.6021729

--- time: Mon Sep 04 11:56:53 GMT+05:30 2017
Location: Lat= 22.31725081,Lon= 87.30784829
x_axisAccelero = 5.4160156
y_axisAccelero = -5.541092
z_axisAccelero = 7.370346
x_axisGyro = -1.8855286
y_axisGyro = 0.50541687
z_axisGyro = 0.6168823
x_axisMagneto = -47.125244
y_axisMagneto = 16.242981
z_axisMagneto = -2.5848389

--- time: Mon Sep 04 11:56:58 GMT+05:30 2017
Location: Lat= 22.3172899,Lon= 87.30798713
x_axisAccelero = 4.11261
y_axisAccelero = -6.9981384
z_axisAccelero = 7.8263702
x_axisGyro = -1.5218811
y_axisGyro = 0.20765686
z_axisGyro = 0.69392395
x_axisMagneto = -45.0058
y_axisMagneto = 13.174438
z_axisMagneto = -1.0147095

--- time: Mon Sep 04 11:57:03 GMT+05:30 2017
Location: Lat= 22.31728649,Lon= 87.30815531
x_axisAccelero = 4.3280487
y_axisAccelero = -6.420166
z_axisAccelero = 11.370468
x_axisGyro = -1.0079346
y_axisGyro = 0.38145447
z_axisGyro = 0.27670288
x_axisMagneto = -47.805786
y_axisMagneto = 14.367676
z_axisMagneto = -1.5533447

--- time: Mon Sep 04 11:57:08 GMT+05:30 2017
Location: Lat= 22.31725852,Lon= 87.30832969
x_axisAccelero = 2.359665
y_axisAccelero = -8.117783
z_axisAccelero = 7.851776
x_axisGyro = -0.33802795
y_axisGyro = -0.05567932
z_axisGyro = 0.16270447
x_axisMagneto = -48.07434
y_axisMagneto = 14.030457
z_axisMagneto = 0.37231445

--- time: Mon Sep 04 11:57:13 GMT+05:30 2017
Location: Lat= 22.31724328,Lon= 87.30841701
x_axisAccelero = 3.8842468
y_axisAccelero = -10.062729
z_axisAccelero = 8.162064
x_axisGyro = -0.11149597
y_axisGyro = -0.011688232
z_axisGyro = -0.06321716
x_axisMagneto = -48.924255
y_axisMagneto = 13.07373
z_axisMagneto = 2.2659302

--- time: Mon Sep 04 11:57:18 GMT+05:30 2017
Location: Lat= 22.31721888,Lon= 87.30858818
x_axisAccelero = 4.3338623
y_axisAccelero = -9.680405
z_axisAccelero = 9.0867
x_axisGyro = 0.13861084
y_axisGyro = 0.08331299
z_axisGyro = -0.26863098
x_axisMagneto = -50.868225
y_axisMagneto = 17.242432
z_axisMagneto = -2.2277832

--- time: Mon Sep 04 11:57:23 GMT+05:30 2017
Location: Lat= 22.31720349,Lon= 87.30876385
x_axisAccelero = 2.3357239
y_axisAccelero = -7.69046
z_axisAccelero = 6.2285614
x_axisGyro = 0.047439575
y_axisGyro = -0.07650757
z_axisGyro = -0.010482788
x_axisMagneto = -47.550964
y_axisMagneto = 11.636353
z_axisMagneto = -0.42114258

--- time: Mon Sep 04 11:57:28 GMT+05:30 2017
Location: Lat= 22.3171914,Lon= 87.30885746
x_axisAccelero = 2.8233948
y_axisAccelero = -11.243835
z_axisAccelero = 10.393326
x_axisGyro = 0.45144653
y_axisGyro = -0.30847168
z_axisGyro = -0.010406494
x_axisMagneto = -48.25592
y_axisMagneto = 16.093445
z_axisMagneto = 3.3096313

--- time: Mon Sep 04 11:57:33 GMT+05:30 2017
Location: Lat= 22.31718894,Lon= 87.3090611
x_axisAccelero = 1.5380859
y_axisAccelero = -7.5058594
z_axisAccelero = 7.8631134
x_axisGyro = 0.37312317
y_axisGyro = -0.27830505
z_axisGyro = -0.10055542
x_axisMagneto = -52.182007
y_axisMagneto = 16.018677
z_axisMagneto = 0.91552734

--- time: Mon Sep 04 11:57:38 GMT+05:30 2017
Location: Lat= 22.31717534,Lon= 87.3092878
x_axisAccelero = 3.6890411
y_axisAccelero = -11.292175
z_axisAccelero = 8.916534
x_axisGyro = 0.029251099
y_axisGyro = -0.015396118
z_axisGyro = -0.08659363
x_axisMagneto = -46.824646
y_axisMagneto = 11.8927
z_axisMagneto = -2.5650024

--- time: Mon Sep 04 11:57:43 GMT+05:30 2017
Location: Lat= 22.31719574,Lon= 87.30946785
x_axisAccelero = 3.9999695
y_axisAccelero = -8.791504
z_axisAccelero = 8.401093
x_axisGyro = -0.018341064
y_axisGyro = -0.044662476
z_axisGyro = -0.024276733
x_axisMagneto = -50.11902
y_axisMagneto = 14.254761
z_axisMagneto = 0.3036499

--- time: Mon Sep 04 11:57:48 GMT+05:30 2017
Location: Lat= 22.31725239,Lon= 87.30965206
x_axisAccelero = 1.2280121
y_axisAccelero = -7.6462555
z_axisAccelero = 6.029831
x_axisGyro = 0.6794586
y_axisGyro = -0.6772461
z_axisGyro = 0.6659088
x_axisMagneto = -11.676025
y_axisMagneto = 50.242615
z_axisMagneto = 8.477783

--- time: Mon Sep 04 11:57:53 GMT+05:30 2017
Location: Lat= 22.31753952,Lon= 87.30981121
x_axisAccelero = 4.341507
y_axisAccelero = -5.4311523
z_axisAccelero = 8.57666
x_axisGyro = 0.8570404
y_axisGyro = -0.039871216
z_axisGyro = -0.4194336
x_axisMagneto = -15.518188
y_axisMagneto = 48.85559
z_axisMagneto = -9.947205

--- time: Mon Sep 04 11:57:58 GMT+05:30 2017
Location: Lat= 22.31784231,Lon= 87.30989301
x_axisAccelero = 2.3564148
y_axisAccelero = -8.055756
z_axisAccelero = 4.6872864
x_axisGyro = 0.8490753
y_axisGyro = -0.28703308
z_axisGyro = -0.35035706
x_axisMagneto = -10.025024
y_axisMagneto = 49.980164
z_axisMagneto = 1.6036987

--- time: Mon Sep 04 11:58:03 GMT+05:30 2017
Location: Lat= 22.31807994,Lon= 87.30984241
x_axisAccelero = 4.28154
y_axisAccelero = -4.7525787
z_axisAccelero = 7.6631775
x_axisGyro = -1.3293762
y_axisGyro = 0.22802734
z_axisGyro = 0.44044495
x_axisMagneto = -7.624817
y_axisMagneto = 46.487427
z_axisMagneto = 15.722656

--- time: Mon Sep 04 11:58:08 GMT+05:30 2017
Location: Lat= 22.31818984,Lon= 87.30985195
x_axisAccelero = 4.7408752
y_axisAccelero = -5.7057037
z_axisAccelero = 4.2771454
x_axisGyro = 1.649704
y_axisGyro = -0.26934814
z_axisGyro = -0.47052002
x_axisMagneto = 14.656067
y_axisMagneto = 7.1121216
z_axisMagneto = -39.089966

--- time: Mon Sep 04 11:58:13 GMT+05:30 2017
Location: Lat= 22.31822324,Lon= 87.30971986
x_axisAccelero = 2.7661285
y_axisAccelero = -7.444153
z_axisAccelero = 8.638245
x_axisGyro = 1.2641907
y_axisGyro = -0.5569916
z_axisGyro = -0.7524719
x_axisMagneto = 15.031433
y_axisMagneto = 6.7367554
z_axisMagneto = -38.46588

--- time: Mon Sep 04 11:58:18 GMT+05:30 2017
Location: Lat= 22.31818262,Lon= 87.3095756
x_axisAccelero = 4.5196686
y_axisAccelero = -3.8918457
z_axisAccelero = 6.553177
x_axisGyro = 0.74580383
y_axisGyro = 0.003921509
z_axisGyro = -0.097839355
x_axisMagneto = 13.90686
y_axisMagneto = 3.3935547
z_axisMagneto = -38.027954

--- time: Mon Sep 04 11:58:23 GMT+05:30 2017
Location: Lat= 22.31814114,Lon= 87.30948329
x_axisAccelero = 7.4001617
y_axisAccelero = 0.2554779
z_axisAccelero = 9.648407
x_axisGyro = -0.29319763
y_axisGyro = 0.14035034
z_axisGyro = 0.05683899
x_axisMagneto = 7.03125
y_axisMagneto = -11.264038
z_axisMagneto = -39.089966

--- time: Mon Sep 04 11:58:28 GMT+05:30 2017
Location: Lat= 22.31806257,Lon= 87.3093646
x_axisAccelero = 3.593521
y_axisAccelero = -8.65239
z_axisAccelero = 4.0824127
x_axisGyro = 0.020355225
y_axisGyro = -0.04031372
z_axisGyro = -0.035842896
x_axisMagneto = -27.874756
y_axisMagneto = -3.2943726
z_axisMagneto = -38.716125

--- time: Mon Sep 04 11:58:33 GMT+05:30 2017
Location: Lat= 22.31802675,Lon= 87.30934395
x_axisAccelero = 1.4401855
y_axisAccelero = 2.7365265
z_axisAccelero = 8.663559
x_axisGyro = -0.07785034
y_axisGyro = -0.027557373
z_axisGyro = 0.0082092285
x_axisMagneto = -14.498901
y_axisMagneto = -41.54358
z_axisMagneto = -17.933655