
***Details|Source:RK|Dest:CSE|By:BYCYCLE|Weather:CLEAR


--- time: Tue Sep 05 09:50:24 GMT+05:30 2017
Location: Lat= 22.3211121,Lon= 87.30716876
x_axisAccelero = -0.5746155
y_axisAccelero = 4.8841705
z_axisAccelero = 7.565674
x_axisMagneto = -5.244446
y_axisMagneto = -44.926453
z_axisMagneto = -21.937561
x_axisGyro = 0.10585022
y_axisGyro = 0.042007446
z_axisGyro = 0.13830566

--- time: Tue Sep 05 09:50:29 GMT+05:30 2017
Location: Lat= 22.32110817,Lon= 87.30716001
x_axisAccelero = -0.30645752
y_axisAccelero = -9.021347
z_axisAccelero = 6.205765
x_axisMagneto = -54.338074
y_axisMagneto = 29.449463
z_axisMagneto = 30.125427
x_axisGyro = 1.3677063
y_axisGyro = -1.0994415
z_axisGyro = -1.2317505

--- time: Tue Sep 05 09:50:34 GMT+05:30 2017
Location: Lat= 22.3211201,Lon= 87.30715309
x_axisAccelero = 2.1643524
y_axisAccelero = -0.61291504
z_axisAccelero = 10.266342
x_axisMagneto = -12.837219
y_axisMagneto = -27.862549
z_axisMagneto = -44.718933
x_axisGyro = -0.6636963
y_axisGyro = 0.15969849
z_axisGyro = -0.20036316

--- time: Tue Sep 05 09:50:39 GMT+05:30 2017
Location: Lat= 22.32110747,Lon= 87.30715856
x_axisAccelero = 2.2026672
y_axisAccelero = -5.056549
z_axisAccelero = 6.205765
x_axisMagneto = -3.3370972
y_axisMagneto = -11.676025
z_axisMagneto = -48.657227
x_axisGyro = 1.2378235
y_axisGyro = -0.2613678
z_axisGyro = -0.10131836

--- time: Tue Sep 05 09:50:44 GMT+05:30 2017
Location: Lat= 22.3208719,Lon= 87.30721703
x_axisAccelero = 2.4769897
y_axisAccelero = -0.8971405
z_axisAccelero = 6.6995697
x_axisMagneto = -54.338074
y_axisMagneto = 29.449463
z_axisMagneto = 30.125427
x_axisGyro = 0.42521667
y_axisGyro = -0.24580383
z_axisGyro = -0.06071472

--- time: Tue Sep 05 09:50:49 GMT+05:30 2017
Location: Lat= 22.3207043,Lon= 87.30726086
x_axisAccelero = 4.3732605
y_axisAccelero = 1.9208069
z_axisAccelero = 5.5620117
x_axisMagneto = -7.8063965
y_axisMagneto = -16.52069
z_axisMagneto = -47.125244
x_axisGyro = 0.19335938
y_axisGyro = -0.24142456
z_axisGyro = 0.04837036

--- time: Tue Sep 05 09:50:54 GMT+05:30 2017
Location: Lat= 22.32061071,Lon= 87.30727469
x_axisAccelero = 5.883087
y_axisAccelero = 0.6445465
z_axisAccelero = 5.4307556
x_axisMagneto = -11.7126465
y_axisMagneto = -29.582214
z_axisMagneto = -40.093994
x_axisGyro = -0.71440125
y_axisGyro = 0.043045044
z_axisGyro = 0.07069397

--- time: Tue Sep 05 09:50:59 GMT+05:30 2017
Location: Lat= 22.32042587,Lon= 87.30731568
x_axisAccelero = 3.2646637
y_axisAccelero = -1.4420471
z_axisAccelero = 4.2935486
x_axisGyro = -0.30046082
y_axisGyro = 0.2406311
z_axisGyro = 0.13040161
x_axisMagneto = -13.88092
y_axisMagneto = -28.01361
z_axisMagneto = -40.568542

--- time: Tue Sep 05 09:51:04 GMT+05:30 2017
Location: Lat= 22.32032133,Lon= 87.30730333
x_axisAccelero = 3.4251862
y_axisAccelero = -7.049179
z_axisAccelero = 8.337372
x_axisGyro = 1.753418
y_axisGyro = -0.3489685
z_axisGyro = -0.5901642
x_axisMagneto = -11.56311
y_axisMagneto = -37.088013
z_axisMagneto = -33.81195

--- time: Tue Sep 05 09:51:09 GMT+05:30 2017
Location: Lat= 22.32027947,Lon= 87.30728811
x_axisAccelero = 3.6942444
y_axisAccelero = -7.516983
z_axisAccelero = 10.028275
x_axisGyro = -1.065033
y_axisGyro = -0.12150574
z_axisGyro = 0.46403503
x_axisMagneto = -33.662415
y_axisMagneto = -13.66272
z_axisMagneto = -40.0177

--- time: Tue Sep 05 09:51:14 GMT+05:30 2017
Location: Lat= 22.32030121,Lon= 87.30725911
x_axisAccelero = 5.0701294
y_axisAccelero = 0.76226807
z_axisAccelero = 5.018921
x_axisGyro = -0.7657471
y_axisGyro = 0.419281
z_axisGyro = 0.4797058
x_axisMagneto = -50.050354
y_axisMagneto = 10.762024
z_axisMagneto = -13.08136

--- time: Tue Sep 05 09:51:19 GMT+05:30 2017
Location: Lat= 22.32001378,Lon= 87.30732897
x_axisAccelero = 4.8395386
y_axisAccelero = -0.12983704
z_axisAccelero = 8.512314
x_axisGyro = -1.6040039
y_axisGyro = 0.51171875
z_axisGyro = 0.39743042
x_axisMagneto = -50.68817
y_axisMagneto = 9.754944
z_axisMagneto = -10.043335

--- time: Tue Sep 05 09:51:24 GMT+05:30 2017
Location: Lat= 22.32006388,Lon= 87.30742843
x_axisAccelero = 3.1176147
y_axisAccelero = -4.7287445
z_axisAccelero = 8.073257
x_axisGyro = -1.8686676
y_axisGyro = 0.4285736
z_axisGyro = 0.5445404
x_axisMagneto = -51.550293
y_axisMagneto = 12.69989
z_axisMagneto = -9.092712

--- time: Tue Sep 05 09:51:29 GMT+05:30 2017
Location: Lat= 22.32007338,Lon= 87.30764348
x_axisAccelero = 3.1747131
y_axisAccelero = -7.536957
z_axisAccelero = 6.495468
x_axisGyro = 0.8236847
y_axisGyro = -0.47155762
z_axisGyro = -0.36779785
x_axisMagneto = -52.975464
y_axisMagneto = 5.4489136
z_axisMagneto = -10.606384

--- time: Tue Sep 05 09:51:34 GMT+05:30 2017
Location: Lat= 22.32005994,Lon= 87.30784136
x_axisAccelero = 2.6453094
y_axisAccelero = -5.58667
z_axisAccelero = 5.311569
x_axisGyro = 1.7849731
y_axisGyro = -0.38006592
z_axisGyro = -0.65592957
x_axisMagneto = -52.149963
y_axisMagneto = -0.8255005
z_axisMagneto = -7.336426

--- time: Tue Sep 05 09:51:39 GMT+05:30 2017
Location: Lat= 22.32007742,Lon= 87.30794612
x_axisAccelero = 1.701294
y_axisAccelero = -1.3430176
z_axisAccelero = 2.895752
x_axisGyro = -1.9521332
y_axisGyro = 0.61720276
z_axisGyro = 0.59840393
x_axisMagneto = -51.62506
y_axisMagneto = 4.88739
z_axisMagneto = -18.049622

--- time: Tue Sep 05 09:51:44 GMT+05:30 2017
Location: Lat= 22.32004519,Lon= 87.30820937
x_axisAccelero = 2.3305817
y_axisAccelero = -6.1413116
z_axisAccelero = 6.9536285
x_axisGyro = -0.37809753
y_axisGyro = 0.15330505
z_axisGyro = 0.12411499
x_axisMagneto = -51.36261
y_axisMagneto = 6.6864014
z_axisMagneto = -16.687012

--- time: Tue Sep 05 09:51:49 GMT+05:30 2017
Location: Lat= 22.31995713,Lon= 87.30846572
x_axisAccelero = 3.9994354
y_axisAccelero = -10.381256
z_axisAccelero = 11.20134
x_axisGyro = 1.0606537
y_axisGyro = -0.23040771
z_axisGyro = -0.4135437
x_axisMagneto = -12.237549
y_axisMagneto = -27.406311
z_axisMagneto = -39.692688

--- time: Tue Sep 05 09:51:54 GMT+05:30 2017
Location: Lat= 22.31985215,Lon= 87.30853446
x_axisAccelero = 4.5068665
y_axisAccelero = -1.8332062
z_axisAccelero = 6.411499
x_axisGyro = -0.25160217
y_axisGyro = 0.21766663
z_axisGyro = 0.3929901
x_axisMagneto = 3.125
y_axisMagneto = -14.318848
z_axisMagneto = -44.781494

--- time: Tue Sep 05 09:51:59 GMT+05:30 2017
Location: Lat= 22.31968834,Lon= 87.30853197
x_axisAccelero = 4.397003
y_axisAccelero = -7.8359833
z_axisAccelero = 9.463608
x_axisGyro = 1.0409393
y_axisGyro = -0.464386
z_axisGyro = -0.401062
x_axisMagneto = -6.6192627
y_axisMagneto = -22.850037
z_axisMagneto = -41.305542

--- time: Tue Sep 05 09:52:04 GMT+05:30 2017
Location: Lat= 22.31954033,Lon= 87.3084776
x_axisAccelero = 3.0387726
y_axisAccelero = -7.9443054
z_axisAccelero = 6.5047913
x_axisGyro = 0.73526
y_axisGyro = -0.46948242
z_axisGyro = -0.1690979
x_axisMagneto = -2.1011353
y_axisMagneto = -16.975403
z_axisMagneto = -45.536804

--- time: Tue Sep 05 09:52:09 GMT+05:30 2017
Location: Lat= 22.31948115,Lon= 87.30844441
x_axisAccelero = 4.916214
y_axisAccelero = -9.669296
z_axisAccelero = 10.338333
x_axisGyro = 1.3560944
y_axisGyro = -0.48292542
z_axisGyro = -0.37509155
x_axisMagneto = -2.3635864
y_axisMagneto = -20.381165
z_axisMagneto = -43.055725

--- time: Tue Sep 05 09:52:14 GMT+05:30 2017
Location: Lat= 22.31929667,Lon= 87.30838258
x_axisAccelero = 2.726242
y_axisAccelero = -4.066864
z_axisAccelero = 6.6360016
x_axisGyro = 1.3717346
y_axisGyro = -0.17907715
z_axisGyro = -0.56925964
x_axisMagneto = -1.8814087
y_axisMagneto = -24.832153
z_axisMagneto = -41.89911

--- time: Tue Sep 05 09:52:19 GMT+05:30 2017
Location: Lat= 22.31908453,Lon= 87.30827797
x_axisAccelero = 3.5331573
y_axisAccelero = -1.3512573
z_axisAccelero = 5.350586
x_axisGyro = -1.7452393
y_axisGyro = 0.64146423
z_axisGyro = 0.68370056
x_axisMagneto = -1.2695312
y_axisMagneto = -9.819031
z_axisMagneto = -45.887756

--- time: Tue Sep 05 09:52:23 GMT+05:30 2017
Location: Lat= 22.3189754,Lon= 87.30821793
x_axisAccelero = 2.1778107
y_axisAccelero = -7.098984
z_axisAccelero = 5.547104
x_axisGyro = -0.25753784
y_axisGyro = 0.31367493
z_axisGyro = 0.20758057
x_axisMagneto = -0.6072998
y_axisMagneto = -9.976196
z_axisMagneto = -46.061707

--- time: Tue Sep 05 09:52:28 GMT+05:30 2017
Location: Lat= 22.31873785,Lon= 87.3080696
x_axisAccelero = 3.8877106
y_axisAccelero = -9.123337
z_axisAccelero = 6.7531433
x_axisGyro = 1.1945038
y_axisGyro = -0.7433319
z_axisGyro = -0.59480286
x_axisMagneto = -2.9006958
y_axisMagneto = -20.925903
z_axisMagneto = -43.774414

--- time: Tue Sep 05 09:52:33 GMT+05:30 2017
Location: Lat= 22.31861815,Lon= 87.3079187
x_axisAccelero = 4.979431
y_axisAccelero = -3.2448273
z_axisAccelero = 7.891449
x_axisGyro = 0.5196533
y_axisGyro = 0.01637268
z_axisGyro = -0.17999268
x_axisMagneto = -0.6881714
y_axisMagneto = -18.588257
z_axisMagneto = -44.42444

--- time: Tue Sep 05 09:52:38 GMT+05:30 2017
Location: Lat= 22.31858797,Lon= 87.30783758
x_axisAccelero = 3.371048
y_axisAccelero = -1.177948
z_axisAccelero = 4.1563416
x_axisGyro = -1.7099915
y_axisGyro = 0.6703644
z_axisGyro = 0.7752075
x_axisMagneto = -2.218628
y_axisMagneto = -9.443665
z_axisMagneto = -47.25647

--- time: Tue Sep 05 09:52:43 GMT+05:30 2017
Location: Lat= 22.31847973,Lon= 87.3077022
x_axisAccelero = 4.4331665
y_axisAccelero = -6.758728
z_axisAccelero = 6.864212
x_axisGyro = -0.96180725
y_axisGyro = 0.52101135
z_axisGyro = 0.22409058
x_axisMagneto = 1.0116577
y_axisMagneto = -6.600952
z_axisMagneto = -46.224976

--- time: Tue Sep 05 09:52:48 GMT+05:30 2017
Location: Lat= 22.31837734,Lon= 87.30756853
x_axisAccelero = 1.0747375
y_axisAccelero = -6.4901886
z_axisAccelero = 6.7443542
x_axisGyro = 0.0066223145
y_axisGyro = 0.039352417
z_axisGyro = 0.07058716
x_axisMagneto = -1.8005371
y_axisMagneto = -11.7752075
z_axisMagneto = -45.487976

--- time: Tue Sep 05 09:52:53 GMT+05:30 2017
Location: Lat= 22.31831504,Lon= 87.30750166
x_axisAccelero = 3.3782654
y_axisAccelero = -6.5626526
z_axisAccelero = 7.0780945
x_axisGyro = -0.23881531
y_axisGyro = 0.15644836
z_axisGyro = -0.11999512
x_axisMagneto = -1.3504028
y_axisMagneto = -8.306885
z_axisMagneto = -45.880127

--- time: Tue Sep 05 09:52:58 GMT+05:30 2017
Location: Lat= 22.318178415298462,Lon= 87.30737328529358
x_axisAccelero = 4.322708
y_axisAccelero = -6.506897
z_axisAccelero = 7.458786
x_axisGyro = -1.1240692
y_axisGyro = 0.3327942
z_axisGyro = 0.31134033
x_axisMagneto = 1.6494751
y_axisMagneto = -4.800415
z_axisMagneto = -45.993042

--- time: Tue Sep 05 09:53:03 GMT+05:30 2017
Location: Lat= 22.318071126937866,Lon= 87.30723917484283
x_axisAccelero = 4.1252136
y_axisAccelero = -1.1477051
z_axisAccelero = 5.951782
x_axisGyro = -1.4854126
y_axisGyro = 0.534729
z_axisGyro = 0.64115906
x_axisMagneto = 2.0431519
y_axisMagneto = -9.4192505
z_axisMagneto = -46.27533

--- time: Tue Sep 05 09:53:08 GMT+05:30 2017
Location: Lat= 22.31776325,Lon= 87.30711545
x_axisAccelero = 2.4302368
y_axisAccelero = -6.407913
z_axisAccelero = 7.8285065
x_axisGyro = 1.7080688
y_axisGyro = -0.46188354
z_axisGyro = -0.14343262
x_axisMagneto = -27.093506
y_axisMagneto = -35.27527
z_axisMagneto = -23.950195

--- time: Tue Sep 05 09:53:13 GMT+05:30 2017
Location: Lat= 22.31734703,Lon= 87.30740036
x_axisAccelero = 4.4535065
y_axisAccelero = -5.23114
z_axisAccelero = 8.001617
x_axisGyro = 1.1322632
y_axisGyro = -0.26461792
z_axisGyro = -0.5661316
x_axisMagneto = -50.538635
y_axisMagneto = -2.2506714
z_axisMagneto = -9.480286

--- time: Tue Sep 05 09:53:18 GMT+05:30 2017
Location: Lat= 22.31729769,Lon= 87.30765381
x_axisAccelero = 0.6564789
y_axisAccelero = -5.777527
z_axisAccelero = 5.652008
x_axisGyro = 0.13218689
y_axisGyro = -0.055358887
z_axisGyro = -0.11703491
x_axisMagneto = -50.013733
y_axisMagneto = 14.44397
z_axisMagneto = -8.218384

--- time: Tue Sep 05 09:53:23 GMT+05:30 2017
Location: Lat= 22.31730477,Lon= 87.30773345
x_axisAccelero = 3.8975677
y_axisAccelero = -10.7786255
z_axisAccelero = 8.120529
x_axisGyro = -0.24267578
y_axisGyro = 0.09921265
z_axisGyro = 0.015991211
x_axisMagneto = -48.10028
y_axisMagneto = 15.211487
z_axisMagneto = -7.344055

--- time: Tue Sep 05 09:53:28 GMT+05:30 2017
Location: Lat= 22.31735067,Lon= 87.30794011
x_axisAccelero = 3.9634247
y_axisAccelero = -10.550064
z_axisAccelero = 11.529999
x_axisGyro = 0.43203735
y_axisGyro = -0.36401367
z_axisGyro = -0.13764954
x_axisMagneto = -48.887634
y_axisMagneto = 15.437317
z_axisMagneto = -5.1864624

--- time: Tue Sep 05 09:53:33 GMT+05:30 2017
Location: Lat= 22.31735749,Lon= 87.30817003
x_axisAccelero = 1.9342194
y_axisAccelero = -5.5030518
z_axisAccelero = 4.3751526
x_axisGyro = 1.3510437
y_axisGyro = -0.5509949
z_axisGyro = -0.7712097
x_axisMagneto = -50.16327
y_axisMagneto = 5.529785
z_axisMagneto = -8.518982

--- time: Tue Sep 05 09:53:38 GMT+05:30 2017
Location: Lat= 22.31737215,Lon= 87.30827125
x_axisAccelero = 4.419754
y_axisAccelero = -2.8370514
z_axisAccelero = 6.786865
x_axisGyro = 0.18507385
y_axisGyro = 0.07122803
z_axisGyro = -0.064834595
x_axisMagneto = -52.000427
y_axisMagneto = 10.087585
z_axisMagneto = -10.437012

--- time: Tue Sep 05 09:53:43 GMT+05:30 2017
Location: Lat= 22.31739442,Lon= 87.30849531
x_axisAccelero = 3.507141
y_axisAccelero = -6.6217346
z_axisAccelero = 6.802887
x_axisGyro = -1.8415527
y_axisGyro = 0.49679565
z_axisGyro = 0.64585876
x_axisMagneto = -48.92578
y_axisMagneto = 13.299561
z_axisMagneto = -7.0999146

--- time: Tue Sep 05 09:53:48 GMT+05:30 2017
Location: Lat= 22.31742222,Lon= 87.3087318
x_axisAccelero = 1.8049469
y_axisAccelero = -5.1086884
z_axisAccelero = 5.9338074
x_axisGyro = -0.47332764
y_axisGyro = 0.2060852
z_axisGyro = 0.18347168
x_axisMagneto = -50.013733
y_axisMagneto = 11.698914
z_axisMagneto = -7.180786

--- time: Tue Sep 05 09:53:53 GMT+05:30 2017
Location: Lat= 22.31744354,Lon= 87.3088488
x_axisAccelero = 2.0880737
y_axisAccelero = -7.4420166
z_axisAccelero = 7.49881
x_axisGyro = 0.3825531
y_axisGyro = -0.27748108
z_axisGyro = -0.27708435
x_axisMagneto = -49.900818
y_axisMagneto = 7.437134
z_axisMagneto = -3.09906

--- time: Tue Sep 05 09:53:58 GMT+05:30 2017
Location: Lat= 22.31748912,Lon= 87.30905819
x_axisAccelero = 3.294342
y_axisAccelero = -7.324173
z_axisAccelero = 6.8907013
x_axisGyro = 0.9016113
y_axisGyro = -0.59458923
z_axisGyro = -0.296875
x_axisMagneto = -48.887634
y_axisMagneto = 11.048889
z_axisMagneto = -5.9310913

--- time: Tue Sep 05 09:54:03 GMT+05:30 2017
Location: Lat= 22.31750757,Lon= 87.30929755
x_axisAccelero = 4.428314
y_axisAccelero = -9.371536
z_axisAccelero = 7.5880127
x_axisGyro = 0.87968445
y_axisGyro = -0.60269165
z_axisGyro = -0.4013214
x_axisMagneto = -49.5636
y_axisMagneto = 11.904907
z_axisMagneto = 2.5878906

--- time: Tue Sep 05 09:54:08 GMT+05:30 2017
Location: Lat= 22.31753931,Lon= 87.30942007
x_axisAccelero = 2.9092255
y_axisAccelero = -9.568726
z_axisAccelero = 9.5529175
x_axisGyro = 0.27442932
y_axisGyro = -0.21530151
z_axisGyro = 0.11383057
x_axisMagneto = -46.907043
y_axisMagneto = 13.735962
z_axisMagneto = -10.1119995

--- time: Tue Sep 05 09:54:13 GMT+05:30 2017
Location: Lat= 22.31758519,Lon= 87.30965154
x_axisAccelero = 2.5021057
y_axisAccelero = -5.0012207
z_axisAccelero = 5.0733795
x_axisGyro = 0.012084961
y_axisGyro = -0.06259155
z_axisGyro = 0.19090271
x_axisMagneto = -47.276306
y_axisMagneto = 11.6622925
z_axisMagneto = -2.9678345

--- time: Tue Sep 05 09:54:18 GMT+05:30 2017
Location: Lat= 22.31759858,Lon= 87.30986946
x_axisAccelero = 4.5062866
y_axisAccelero = -1.3022308
z_axisAccelero = 6.676834
x_axisGyro = 0.47453308
y_axisGyro = -0.29309082
z_axisGyro = 0.4309082
x_axisMagneto = -39.619446
y_axisMagneto = 29.849243
z_axisMagneto = 6.5933228

--- time: Tue Sep 05 09:54:23 GMT+05:30 2017
Location: Lat= 22.31765832,Lon= 87.3098911
x_axisAccelero = 3.1620178
y_axisAccelero = -3.8689575
z_axisAccelero = 6.9074554
x_axisGyro = -1.5271149
y_axisGyro = 0.31770325
z_axisGyro = 0.5227356
x_axisMagneto = -7.1258545
y_axisMagneto = 45.599365
z_axisMagneto = 7.2006226

--- time: Tue Sep 05 09:54:28 GMT+05:30 2017
Location: Lat= 22.31783241,Lon= 87.30987643
x_axisAccelero = 5.6834564
y_axisAccelero = -6.5858765
z_axisAccelero = 8.216232
x_axisGyro = 1.7051849
y_axisGyro = -0.17749023
z_axisGyro = -0.4154663
x_axisMagneto = -10.9817505
y_axisMagneto = 43.336487
z_axisMagneto = -23.986816

--- time: Tue Sep 05 09:54:33 GMT+05:30 2017
Location: Lat= 22.31804298,Lon= 87.30983825
x_axisAccelero = 4.2121124
y_axisAccelero = -3.7451172
z_axisAccelero = 2.5806122
x_axisGyro = -0.33796692
y_axisGyro = 0.18193054
z_axisGyro = 0.2171936
x_axisMagneto = -5.131531
y_axisMagneto = 45.962524
z_axisMagneto = -9.21936

--- time: Tue Sep 05 09:54:38 GMT+05:30 2017
Location: Lat= 22.31813626,Lon= 87.30985123
x_axisAccelero = 3.0493317
y_axisAccelero = -9.040909
z_axisAccelero = 6.3214874
x_axisGyro = 0.36672974
y_axisGyro = -0.38830566
z_axisGyro = 0.33772278
x_axisMagneto = 17.286682
y_axisMagneto = 14.405823
z_axisMagneto = -38.267517

--- time: Tue Sep 05 09:54:43 GMT+05:30 2017
Location: Lat= 22.31822157,Lon= 87.3097018
x_axisAccelero = 4.7324066
y_axisAccelero = -4.3918915
z_axisAccelero = 6.7180176
x_axisGyro = 0.997345
y_axisGyro = -0.16885376
z_axisGyro = -0.69195557
x_axisMagneto = 12.799072
y_axisMagneto = 4.699707
z_axisMagneto = -44.73114

--- time: Tue Sep 05 09:54:48 GMT+05:30 2017
Location: Lat= 22.31816621,Lon= 87.30949805
x_axisAccelero = 4.142502
y_axisAccelero = -4.4023438
z_axisAccelero = 6.4338684
x_axisGyro = -1.3692474
y_axisGyro = 0.43078613
z_axisGyro = 0.45181274
x_axisMagneto = 21.687317
y_axisMagneto = 14.874268
z_axisMagneto = -32.868958

--- time: Tue Sep 05 09:54:53 GMT+05:30 2017
Location: Lat= 22.31807196,Lon= 87.30933698
x_axisAccelero = 2.2901306
y_axisAccelero = -4.737091
z_axisAccelero = 2.8061676
x_axisGyro = -0.22033691
y_axisGyro = -0.10096741
z_axisGyro = -0.30697632
x_axisMagneto = 5.987549
y_axisMagneto = -0.33721924
z_axisMagneto = -44.82422

--- time: Tue Sep 05 09:54:58 GMT+05:30 2017
Location: Lat= 22.31800508,Lon= 87.30925885
x_axisAccelero = 1.4541473
y_axisAccelero = -7.547806
z_axisAccelero = -1.2981873
x_axisGyro = 0.84155273
y_axisGyro = -0.59498596
z_axisGyro = -0.41749573
x_axisMagneto = 29.574585
y_axisMagneto = 28.587341
z_axisMagneto = 1.3183594