
***Details|Source:TECHM|Dest:RP|By:BICYCLE|Weather:CLEAR


--- time: Sat Sep 09 18:49:25 GMT+05:30 2017
Location: Lat= 22.31459204,Lon= 87.30048013
x_axisAccelero = 2.858139
y_axisAccelero = 4.858963
z_axisAccelero = 6.7454987
x_axisGyro = -0.6161957
y_axisGyro = 1.0651703
z_axisGyro = 0.39048767
x_axisMagneto = -37.98065
y_axisMagneto = 6.1447144
z_axisMagneto = -25.959778

--- time: Sat Sep 09 18:49:30 GMT+05:30 2017
Location: Lat= 22.31459467,Lon= 87.30047615
x_axisAccelero = 4.7585297
y_axisAccelero = -8.934784
z_axisAccelero = 0.10266113
x_axisGyro = -0.419281
y_axisGyro = 0.94714355
z_axisGyro = -0.079956055

--- time: Sat Sep 09 18:49:50 GMT+05:30 2017
Location: Lat= 22.31462823,Lon= 87.30046079
x_axisMagneto = -5.015564
y_axisMagneto = 29.698181
z_axisMagneto = -24.180603
x_axisGyro = 0.0046081543
y_axisGyro = -0.11332703
z_axisGyro = -0.6592407
x_axisAccelero = -3.7548676
y_axisAccelero = -4.743973
z_axisAccelero = -1.467926

--- time: Sat Sep 09 18:50:08 GMT+05:30 2017
Location: Lat= 22.31469932,Lon= 87.30067292
x_axisAccelero = -6.400543
y_axisAccelero = -4.7108917
z_axisAccelero = 0.39785767
x_axisGyro = 0.1640625
y_axisGyro = -0.41133118
z_axisGyro = 0.9902954
x_axisMagneto = 12.666321
y_axisMagneto = 43.17932
z_axisMagneto = 13.269043

--- time: Sat Sep 09 18:50:14 GMT+05:30 2017
Location: Lat= 22.31482383,Lon= 87.30066983
x_axisAccelero = -7.2393036
y_axisAccelero = -6.450943
z_axisAccelero = -0.30645752
x_axisGyro = 0.09654236
y_axisGyro = -0.4730072
z_axisGyro = -0.08956909
x_axisMagneto = 4.7348022
y_axisMagneto = 44.76013
z_axisMagneto = 10.96344

--- time: Sat Sep 09 18:50:19 GMT+05:30 2017
Location: Lat= 22.31482383,Lon= 87.30066983
x_axisAccelero = -6.052826
y_axisAccelero = -7.2457886
z_axisAccelero = 0.2653656
x_axisGyro = 0.1877594
y_axisGyro = -0.18518066
z_axisGyro = 0.8851471
x_axisMagneto = 2.5222778
y_axisMagneto = 44.72351
z_axisMagneto = 7.9330444

--- time: Sat Sep 09 18:50:26 GMT+05:30 2017
Location: Lat= 22.31503824,Lon= 87.30061148
x_axisAccelero = -9.805634
y_axisAccelero = -9.301147
z_axisAccelero = -0.5310211
x_axisGyro = -0.20835876
y_axisGyro = 0.24659729
z_axisGyro = -1.1163483
x_axisMagneto = -20.14618
y_axisMagneto = 36.598206
z_axisMagneto = 8.831787

--- time: Sat Sep 09 18:50:31 GMT+05:30 2017
Location: Lat= 22.31522267,Lon= 87.30062085
x_axisAccelero = -5.913864
y_axisAccelero = -4.449005
z_axisAccelero = 0.04750061
x_axisGyro = 0.081604004
y_axisGyro = -0.41601562
z_axisGyro = 0.378479
x_axisMagneto = -3.8848877
y_axisMagneto = 44.917297
z_axisMagneto = 0.40740967

--- time: Sat Sep 09 18:50:36 GMT+05:30 2017
Location: Lat= 22.31539322,Lon= 87.30062445
x_axisAccelero = -5.9123383
y_axisAccelero = -8.626785
z_axisAccelero = 0.82974243
x_axisGyro = -0.19459534
y_axisGyro = 1.2311249
z_axisGyro = 0.6565094
x_axisMagneto = -9.765625
y_axisMagneto = 43.69812
z_axisMagneto = 4.33197

--- time: Sat Sep 09 18:50:45 GMT+05:30 2017
Location: Lat= 22.3157122,Lon= 87.30071739
x_axisAccelero = -5.4097443
y_axisAccelero = -8.261337
z_axisAccelero = 1.7016144
x_axisGyro = -0.2680664
y_axisGyro = -0.6231384
z_axisGyro = -0.11671448
x_axisMagneto = -25.253296
y_axisMagneto = 34.547424
z_axisMagneto = -0.14953613

--- time: Sat Sep 09 18:50:50 GMT+05:30 2017
Location: Lat= 22.31588595,Lon= 87.30075116
x_axisAccelero = -9.280258
y_axisAccelero = -9.032257
z_axisAccelero = 5.0340424
x_axisGyro = -0.067611694
y_axisGyro = -1.6781769
z_axisGyro = -0.8284302
x_axisMagneto = -33.96454
y_axisMagneto = 25.247192
z_axisMagneto = -0.05493164

--- time: Sat Sep 09 18:50:55 GMT+05:30 2017
Location: Lat= 22.31598072,Lon= 87.30079764
x_axisAccelero = -5.227585
y_axisAccelero = -5.006317
z_axisAccelero = -2.1189728
x_axisGyro = -0.049926758
y_axisGyro = -0.693573
z_axisGyro = -0.27197266
x_axisMagneto = 18.2724
y_axisMagneto = 27.479553
z_axisMagneto = -36.817932

--- time: Sat Sep 09 18:51:00 GMT+05:30 2017
Location: Lat= 22.31619136,Lon= 87.30089129
x_axisAccelero = 7.757965
y_axisAccelero = 4.9344025
z_axisAccelero = -0.9160919
x_axisGyro = 0.14160156
y_axisGyro = -0.0844574
z_axisGyro = -0.099609375
x_axisMagneto = 4.447937
y_axisMagneto = -50.239563
z_axisMagneto = -11.26709

--- time: Sat Sep 09 18:51:10 GMT+05:30 2017
Location: Lat= 22.31639903,Lon= 87.30101327
x_axisAccelero = 8.272888
y_axisAccelero = 4.592636
z_axisAccelero = -1.5834656
x_axisGyro = -0.17913818
y_axisGyro = 0.45140076
z_axisGyro = -0.18823242
x_axisMagneto = 6.715393
y_axisMagneto = -51.026917
z_axisMagneto = -3.8238525

--- time: Sat Sep 09 18:51:32 GMT+05:30 2017
Location: Lat= 22.31665511,Lon= 87.30109321
x_axisAccelero = 6.64859
y_axisAccelero = 5.9276733
z_axisAccelero = -0.29249573
x_axisGyro = 0.18658447
y_axisGyro = 0.0054016113
z_axisGyro = -0.02935791
x_axisMagneto = 5.822754
y_axisMagneto = 21.26007
z_axisMagneto = -46.899414

--- time: Sat Sep 09 18:51:57 GMT+05:30 2017
Location: Lat= 22.31716285,Lon= 87.30095186
x_axisAccelero = 1.3581848
y_axisAccelero = 3.0821228
z_axisAccelero = 9.198135
x_axisGyro = 0.10479736
y_axisGyro = 0.08166504
z_axisGyro = -0.39950562
x_axisMagneto = 3.0853271
y_axisMagneto = 22.148132
z_axisMagneto = -50.27466

--- time: Sat Sep 09 18:52:02 GMT+05:30 2017
Location: Lat= 22.31779266,Lon= 87.30083089
x_axisAccelero = -6.235794
y_axisAccelero = -6.639801
z_axisAccelero = -1.8002319
x_axisGyro = -0.93769836
y_axisGyro = -3.0732422
z_axisGyro = 0.82655334
x_axisMagneto = -4.1015625
y_axisMagneto = 46.891785
z_axisMagneto = 9.658813

--- time: Sat Sep 09 18:52:08 GMT+05:30 2017
Location: Lat= 22.31799033,Lon= 87.30083232
x_axisAccelero = -7.6169434
y_axisAccelero = -6.1403046
z_axisAccelero = 4.570648
x_axisMagneto = -22.415161
y_axisMagneto = 38.017273
z_axisMagneto = -7.310486
x_axisGyro = -0.7391052
y_axisGyro = 0.14242554
z_axisGyro = -1.1125641

--- time: Sat Sep 09 18:52:18 GMT+05:30 2017
Location: Lat= 22.31817631,Lon= 87.30083913
x_axisAccelero = -5.4292297
y_axisAccelero = -5.0607605
z_axisAccelero = 4.729828
x_axisGyro = 0.92007446
y_axisGyro = 0.017990112
z_axisGyro = 1.1839752
x_axisMagneto = -21.264648
y_axisMagneto = 34.954834
z_axisMagneto = -11.46698

--- time: Sat Sep 09 18:52:31 GMT+05:30 2017
Location: Lat= 22.31860271,Lon= 87.30107424
x_axisAccelero = -1.4351501
y_axisAccelero = -3.8494873
z_axisAccelero = -0.5831299
x_axisGyro = -0.9454651
y_axisGyro = 0.7697296
z_axisGyro = -1.5182037
x_axisMagneto = -4.246521
y_axisMagneto = 15.510559
z_axisMagneto = -35.14099

--- time: Sat Sep 09 18:52:53 GMT+05:30 2017
Location: Lat= 22.31917097,Lon= 87.3019451
x_axisAccelero = -5.8052063
y_axisAccelero = -7.299515
z_axisAccelero = 2.0085602
x_axisGyro = 0.1366272
y_axisGyro = 1.2003021
z_axisGyro = 0.36732483
x_axisMagneto = -12.664795
y_axisMagneto = 12.890625
z_axisMagneto = -32.4234

--- time: Sat Sep 09 18:53:15 GMT+05:30 2017
Location: Lat= 22.31930051,Lon= 87.30284691
x_axisAccelero = -5.146927
y_axisAccelero = -5.2353516
z_axisAccelero = 3.75914
x_axisGyro = -0.77438354
y_axisGyro = 0.101242065
z_axisGyro = -0.73602295
x_axisMagneto = -6.777954
y_axisMagneto = 12.329102
z_axisMagneto = -36.616516

--- time: Sat Sep 09 18:53:35 GMT+05:30 2017
Location: Lat= 22.31935795,Lon= 87.30351696
x_axisAccelero = -3.3664398
y_axisAccelero = -4.357834
z_axisAccelero = 1.6824493
x_axisGyro = 0.1144104
y_axisGyro = -0.08766174
z_axisGyro = 0.5674591
x_axisMagneto = -8.177185
y_axisMagneto = 18.403625
z_axisMagneto = -32.35321

--- time: Sat Sep 09 18:53:46 GMT+05:30 2017
Location: Lat= 22.31938498,Lon= 87.30377543
x_axisAccelero = -4.925537
y_axisAccelero = -7.525833
z_axisAccelero = 3.3756256
x_axisGyro = -0.19828796
y_axisGyro = -0.357193
z_axisGyro = 0.0770874
x_axisMagneto = -12.590027
y_axisMagneto = 13.122559
z_axisMagneto = -32.585144

--- time: Sat Sep 09 18:53:53 GMT+05:30 2017
Location: Lat= 22.31952653,Lon= 87.30410497
x_axisAccelero = -8.433685
y_axisAccelero = -10.3328705
z_axisAccelero = 5.22348
x_axisGyro = 0.08502197
y_axisGyro = 0.8635559
z_axisGyro = 0.31318665
x_axisMagneto = -5.558777
y_axisMagneto = 14.01062
z_axisMagneto = -34.028625

--- time: Sat Sep 09 18:53:59 GMT+05:30 2017
Location: Lat= 22.31959605,Lon= 87.30431203
x_axisAccelero = -10.858078
y_axisAccelero = -9.710175
z_axisAccelero = 5.536087
x_axisGyro = -0.78019714
y_axisGyro = 0.07447815
z_axisGyro = -1.4893494
x_axisMagneto = -18.833923
y_axisMagneto = 16.923523
z_axisMagneto = -30.322266

--- time: Sat Sep 09 18:54:05 GMT+05:30 2017
Location: Lat= 22.31959174,Lon= 87.30454445
x_axisAccelero = -12.306534
y_axisAccelero = -8.356247
z_axisAccelero = 7.399994
x_axisGyro = 0.72758484
y_axisGyro = -0.390213
z_axisGyro = 1.5287018
x_axisMagneto = -3.527832
y_axisMagneto = 7.185364
z_axisMagneto = -37.147522

--- time: Sat Sep 09 18:54:14 GMT+05:30 2017
Location: Lat= 22.31956577,Lon= 87.3050391
x_axisAccelero = -9.441116
y_axisAccelero = -6.727936
z_axisAccelero = 5.3966064

--- time: Sat Sep 09 18:54:44 GMT+05:30 2017
Location: Lat= 22.32009433,Lon= 87.30555182
x_axisGyro = 0.24597168
y_axisGyro = 1.0035706
z_axisGyro = 0.28042603
x_axisAccelero = -9.632828
y_axisAccelero = -12.311218
z_axisAccelero = 5.5599365
x_axisMagneto = -18.927002
y_axisMagneto = 36.917114
z_axisMagneto = 14.102173

--- time: Sat Sep 09 18:54:51 GMT+05:30 2017
Location: Lat= 22.32030849,Lon= 87.30554465
x_axisAccelero = -4.280487
y_axisAccelero = -4.0822906
z_axisAccelero = 3.4119415
x_axisGyro = 0.8800812
y_axisGyro = -0.23348999
z_axisGyro = 1.5154114
x_axisMagneto = 1.7715454
y_axisMagneto = 46.054077
z_axisMagneto = -4.1534424

--- time: Sat Sep 09 18:54:56 GMT+05:30 2017
Location: Lat= 22.32065431,Lon= 87.30558048
x_axisAccelero = -2.2185974
y_axisAccelero = -4.1647797
z_axisAccelero = 1.2471161
x_axisGyro = 0.034469604
y_axisGyro = 0.4537201
z_axisGyro = 0.24209595
x_axisMagneto = -14.909363
y_axisMagneto = 39.691162
z_axisMagneto = -3.3416748

--- time: Sat Sep 09 18:55:11 GMT+05:30 2017
Location: Lat= 22.32106434,Lon= 87.30563597
x_axisAccelero = -5.576767
y_axisAccelero = -8.516464
z_axisAccelero = 4.228348

--- time: Sat Sep 09 18:55:38 GMT+05:30 2017
Location: Lat= 22.32116476,Lon= 87.30685638
x_axisGyro = 0.8522949
y_axisGyro = -0.08892822
z_axisGyro = 0.96961975
x_axisMagneto = -9.101868
y_axisMagneto = 11.921692
z_axisMagneto = -37.278748
x_axisAccelero = -6.6531982
y_axisAccelero = -7.289093
z_axisAccelero = 4.1456146

--- time: Sat Sep 09 18:55:53 GMT+05:30 2017
Location: Lat= 22.3211593,Lon= 87.30722665
x_axisAccelero = -5.2825623
y_axisAccelero = -7.559555
z_axisAccelero = 3.447647
x_axisGyro = 0.16163635
y_axisGyro = 0.7692261
z_axisGyro = 0.48612976
x_axisMagneto = -2.1026611
y_axisMagneto = 12.109375
z_axisMagneto = -44.529724

--- time: Sat Sep 09 18:56:00 GMT+05:30 2017
Location: Lat= 22.32121178,Lon= 87.30748314
x_axisAccelero = -6.083954
y_axisAccelero = -7.588669
z_axisAccelero = 4.348633
x_axisGyro = -0.2477417
y_axisGyro = -0.913147
z_axisGyro = -0.4481964
x_axisMagneto = 26.571655
y_axisMagneto = 14.404297
z_axisMagneto = 5.734253

--- time: Sat Sep 09 18:56:23 GMT+05:30 2017
Location: Lat= 22.32124487,Lon= 87.30816215
x_axisAccelero = 6.033386
y_axisAccelero = 0.5516205
z_axisAccelero = 5.304779
x_axisGyro = 0.34350586
y_axisGyro = 0.3632965
z_axisGyro = 0.6953125
x_axisMagneto = 20.353699
y_axisMagneto = -6.9641113
z_axisMagneto = -43.003845

--- time: Sat Sep 09 18:56:28 GMT+05:30 2017
Location: Lat= 22.3212116,Lon= 87.30807182
x_axisAccelero = 1.5562592
y_axisAccelero = 2.9581757
z_axisAccelero = 8.786285
x_axisGyro = 0.13276672
y_axisGyro = -0.20666504
z_axisGyro = -0.24057007
x_axisMagneto = 30.490112
y_axisMagneto = -17.60254
z_axisMagneto = -46.59729